{
  "_id": "QKJcrzyrqSkpM6nFh",
  "mftr": "Intel",
  "platform": "Desktop",
  "family": "Legacy Pentium",
  "generation": "",
  "model": "",
  "microarch": "Willamette",
  "core_name": "Willamette",
  "socket_type": [
    "Socket 423"
  ],
  "num_cores": 1,
  "num_threads": "",
  "directx": "",
  "opengl": "",
  "hyper_threading": "No",
  "litho_nm": "180nm",
  "watts": "51.6W",
  "memory_types": "",
  "ecc": "",
  "mftr_spec_link": "http://ark.intel.com/products/27421/Intel-Pentium-4-Processor-1_30-GHz-256K-Cache-400-MHz-FSB",
  "overclockable": "Yes",
  "created_at": "2016-06-27T04:06:02.519Z",
  "title": "Intel Legacy Pentium 1 Core Socket 423 Desktop Processor",
  "part_number": "80528PC013G0K",
  "oem": "Yes",
  "cooling_included": "No",
  "type": "cpus",
  "legacy": "Yes",
  "max_memory": "",
  "bus_speed": "400 MHz",
  "data_width": "32-bit",
  "virtualization": "No",
  "frequency": "1.3 GHz",
  "max_frequency": "",
  "title_custom": ""
}