{
  "_id": "bYFtK8uSect2WW4qs",
  "mftr": "Intel",
  "platform": "Desktop",
  "family": "Legacy Pentium",
  "generation": "",
  "model": "",
  "microarch": "Katmai",
  "core_name": "Katmai",
  "socket_type": [
    "SECC 2242",
    "SECC 242",
    "SECC 2576",
    "SECC 576"
  ],
  "num_cores": 1,
  "num_threads": "",
  "directx": "",
  "opengl": "",
  "hyper_threading": "",
  "litho_nm": "250nm",
  "watts": "28W",
  "memory_types": "",
  "ecc": "",
  "mftr_spec_link": "http://ark.intel.com/products/27538/Intel-Pentium-III-Processor-500-MHz-512K-Cache-100-MHz-FSB",
  "overclockable": "Yes",
  "created_at": "2016-06-27T04:32:50.611Z",
  "title": "Intel Legacy Pentium 1 Core SECC 2242, SECC 242, SECC 2576, SECC 576 Desktop Processor",
  "part_number": "80525PYC500512",
  "oem": "Yes",
  "cooling_included": "No",
  "type": "cpus",
  "legacy": "Yes",
  "max_memory": "",
  "bus_speed": "100 MHz",
  "data_width": "32-bit",
  "virtualization": "No",
  "frequency": "500 MHz",
  "max_frequency": "",
  "title_custom": ""
}