{
  "_id": "bY2qdn8Y6w6ppzFNe",
  "mftr": "Intel",
  "platform": "Desktop",
  "family": "Legacy Pentium",
  "generation": "",
  "model": "E2180",
  "microarch": "Conroe",
  "core_name": "Conroe",
  "socket_type": [
    "LGA 775"
  ],
  "num_cores": 2,
  "num_threads": "",
  "directx": "",
  "opengl": "",
  "hyper_threading": "No",
  "litho_nm": "65nm",
  "watts": "65W",
  "memory_types": "",
  "ecc": "",
  "mftr_spec_link": "http://ark.intel.com/products/31733/Intel-Pentium-Processor-E2180-1M-Cache-2_00-GHz-800-MHz-FSB",
  "overclockable": "Yes",
  "created_at": "2016-06-27T04:37:58.964Z",
  "title": "Intel Legacy Pentium E2180 2 Core LGA 775 Desktop Processor",
  "part_number": "80557E2180",
  "oem": "Yes",
  "cooling_included": "No",
  "type": "cpus",
  "legacy": "Yes",
  "max_memory": "",
  "bus_speed": "800 MHz",
  "data_width": "64-bit",
  "virtualization": "No",
  "frequency": "2 GHz",
  "max_frequency": "",
  "title_custom": ""
}