{
  "_id": "kmpR5leycoJmxFUGS",
  "mftr": "AMD",
  "generation": "",
  "platform": "Desktop",
  "family": "Athlon II X2",
  "model": "235e",
  "microarch": "K10",
  "core_name": "Regor",
  "socket_type": [
    "Socket AM2+",
    "Socket AM3"
  ],
  "num_cores": 2,
  "num_threads": 2,
  "litho_nm": "45nm",
  "watts": "45W",
  "memory_types": "",
  "ecc": "",
  "mftr_spec_link": "",
  "overclockable": "",
  "created_at": "2016-08-10T22:31:59.389Z",
  "title": "Athlon II X2 235e 2 Core Socket AM2+, Socket AM3 Desktop Processor",
  "part_number": "AD235EHDGQBOX",
  "oem": "No",
  "type": "cpus",
  "legacy": "No",
  "cooling_included": "Yes",
  "max_memory": "",
  "bus_speed": "",
  "data_width": "64-bit",
  "virtualization": "",
  "frequency": "2.7 GHz",
  "max_frequency": "",
  "title_custom": ""
}