{
  "_id": "TqUTcJK55HfjchMxY",
  "mftr": "AMD",
  "generation": "",
  "platform": "Desktop",
  "family": "Athlon II X2",
  "model": "270u",
  "microarch": "K10",
  "core_name": "Regor",
  "socket_type": [
    "Socket AM2+",
    "Socket AM3"
  ],
  "num_cores": 2,
  "num_threads": 2,
  "litho_nm": "45nm",
  "watts": "25W",
  "memory_types": "",
  "ecc": "",
  "mftr_spec_link": "",
  "overclockable": "",
  "created_at": "2016-08-10T23:03:25.784Z",
  "title": "Athlon II X2 270u 2 Core Socket AM2+, Socket AM3 Desktop Processor",
  "part_number": "AD270USCK23GM",
  "oem": "Yes",
  "type": "cpus",
  "legacy": "No",
  "cooling_included": "No",
  "max_memory": "",
  "bus_speed": "",
  "data_width": "64-bit",
  "virtualization": "",
  "frequency": "2 GHz",
  "max_frequency": "",
  "title_custom": ""
}