{
  "_id": "spY92HJhWI0oJJaS8",
  "mftr": "AMD",
  "generation": "",
  "platform": "Desktop",
  "family": "A4-Series",
  "model": "A4-3420",
  "microarch": "K10",
  "core_name": "Llano",
  "socket_type": [
    "Socket FM1"
  ],
  "num_cores": 2,
  "num_threads": 2,
  "litho_nm": "32nm",
  "watts": "65W",
  "memory_types": "",
  "ecc": "",
  "mftr_spec_link": "",
  "overclockable": "",
  "created_at": "2016-07-15T09:44:48.781Z",
  "title": "A4-Series A4-3420 2 Core Socket FM1 Desktop Processor",
  "part_number": "AD3420OJZ22HX",
  "oem": "Yes",
  "type": "cpus",
  "legacy": "No",
  "cooling_included": "No",
  "max_memory": "",
  "bus_speed": "",
  "data_width": "64-bit",
  "virtualization": "",
  "frequency": "2.8 GHz",
  "max_frequency": "",
  "title_custom": ""
}