{
  "_id": "ZufDejvE8yAm1Bdfn",
  "mftr": "AMD",
  "generation": "",
  "platform": "Desktop",
  "family": "Athlon X2",
  "model": "5200+",
  "microarch": "K10",
  "core_name": "Regor",
  "socket_type": [
    "Socket AM2+",
    "Socket AM3"
  ],
  "num_cores": 2,
  "num_threads": 2,
  "litho_nm": "45nm",
  "watts": "65W",
  "memory_types": "",
  "ecc": "",
  "mftr_spec_link": "",
  "overclockable": "",
  "created_at": "2016-07-15T08:08:32.620Z",
  "title": "Athlon X2 5200+ 2 Core Socket AM2+, Socket AM3 Desktop Processor",
  "part_number": "AD5200OCK22GM",
  "oem": "Yes",
  "type": "cpus",
  "legacy": "No",
  "cooling_included": "No",
  "max_memory": "",
  "bus_speed": "",
  "data_width": "64-bit",
  "virtualization": "",
  "frequency": "2.3 GHz",
  "max_frequency": "",
  "title_custom": ""
}