{
  "_id": "gnFxNvUSKEclPj5Sy",
  "mftr": "AMD",
  "generation": "",
  "platform": "Desktop",
  "family": "Athlon II X4",
  "model": "605e",
  "microarch": "K10",
  "core_name": "Propus",
  "socket_type": [
    "Socket AM2+",
    "Socket AM3"
  ],
  "num_cores": 4,
  "num_threads": 4,
  "litho_nm": "45nm",
  "watts": "45W",
  "memory_types": "",
  "ecc": "",
  "mftr_spec_link": "",
  "overclockable": "",
  "created_at": "2016-07-15T22:25:37.679Z",
  "title": "Athlon II X4 605e 4 Core Socket AM2+, Socket AM3 Desktop Processor",
  "part_number": "AD605EHDGMBOX",
  "oem": "No",
  "type": "cpus",
  "legacy": "No",
  "cooling_included": "Yes",
  "max_memory": "",
  "bus_speed": "",
  "data_width": "64-bit",
  "virtualization": "",
  "frequency": "2.3 GHz",
  "max_frequency": "",
  "title_custom": ""
}