{
  "_id": "SqIBhJCSzv3fkhoEj",
  "mftr": "AMD",
  "generation": "",
  "platform": "Desktop",
  "family": "Athlon II X4",
  "model": "631",
  "microarch": "K10",
  "core_name": "Llano",
  "socket_type": [
    "Socket FM1"
  ],
  "num_cores": 4,
  "num_threads": 4,
  "litho_nm": "32nm",
  "watts": "65W",
  "memory_types": "",
  "ecc": "",
  "mftr_spec_link": "",
  "overclockable": "",
  "created_at": "2016-08-10T23:13:46.764Z",
  "title": "Athlon II X4 631 4 Core Socket FM1 Desktop Processor",
  "part_number": "AD631XOJGXBOX",
  "oem": "No",
  "type": "cpus",
  "legacy": "No",
  "cooling_included": "Yes",
  "max_memory": "",
  "bus_speed": "",
  "data_width": "64-bit",
  "virtualization": "",
  "frequency": "2.6 GHz",
  "max_frequency": "",
  "title_custom": ""
}