{
  "_id": "jb6dbx9OPU1UA6Cwm",
  "mftr": "AMD",
  "generation": "",
  "platform": "Desktop",
  "family": "Athlon II X2",
  "model": "265",
  "microarch": "K10",
  "core_name": "Regor",
  "socket_type": [
    "Socket AM2+",
    "Socket AM3"
  ],
  "num_cores": 2,
  "num_threads": 2,
  "litho_nm": "45nm",
  "watts": "65W",
  "memory_types": "",
  "ecc": "",
  "mftr_spec_link": "",
  "overclockable": "",
  "created_at": "2016-07-15T22:31:48.250Z",
  "title": "Athlon II X2 265 2 Core Socket AM2+, Socket AM3 Desktop Processor",
  "part_number": "ADX265OCGMBOX",
  "oem": "No",
  "type": "cpus",
  "legacy": "No",
  "cooling_included": "Yes",
  "max_memory": "",
  "bus_speed": "",
  "data_width": "64-bit",
  "virtualization": "",
  "frequency": "3.3 GHz",
  "max_frequency": "",
  "title_custom": ""
}