{
  "_id": "pSpAJjTSt6HXhjknn",
  "mftr": "AMD",
  "generation": "",
  "platform": "Desktop",
  "family": "Athlon II X3",
  "model": "440",
  "microarch": "K10",
  "core_name": "Rana",
  "socket_type": [
    "Socket AM2+",
    "Socket AM3"
  ],
  "num_cores": 3,
  "num_threads": 3,
  "litho_nm": "45nm",
  "watts": "95W",
  "memory_types": "",
  "ecc": "",
  "mftr_spec_link": "",
  "overclockable": "",
  "created_at": "2016-08-10T21:57:22.940Z",
  "title": "Athlon II X3 440 3 Core Socket AM2+, Socket AM3 Desktop Processor",
  "part_number": "ADX440WFGMBOX",
  "oem": "No",
  "type": "cpus",
  "legacy": "No",
  "cooling_included": "Yes",
  "max_memory": "",
  "bus_speed": "",
  "data_width": "64-bit",
  "virtualization": "",
  "frequency": "3 GHz",
  "max_frequency": "",
  "title_custom": ""
}