{
  "_id": "RH8iDawQFmX75gmWN",
  "mftr": "AMD",
  "generation": "",
  "platform": "Desktop",
  "family": "Athlon II X4",
  "model": "630",
  "microarch": "K10",
  "core_name": "Propus",
  "socket_type": [
    "Socket AM2+",
    "Socket AM3"
  ],
  "num_cores": 4,
  "num_threads": 4,
  "litho_nm": "45nm",
  "watts": "95W",
  "memory_types": "",
  "ecc": "",
  "mftr_spec_link": "",
  "overclockable": "",
  "created_at": "2016-08-10T22:34:38.423Z",
  "title": "Athlon II X4 630 4 Core Socket AM2+, Socket AM3 Desktop Processor",
  "part_number": "ADX630WFGIBOX",
  "oem": "No",
  "type": "cpus",
  "legacy": "No",
  "cooling_included": "Yes",
  "max_memory": "",
  "bus_speed": "",
  "data_width": "64-bit",
  "virtualization": "",
  "frequency": "2.8 GHz",
  "max_frequency": "",
  "title_custom": ""
}