{
  "_id": "9MErqYtpKSQTSYBGu",
  "mftr": "Intel",
  "platform": "Desktop",
  "family": "Legacy Pentium",
  "generation": "",
  "model": "E5300",
  "microarch": "Wolfdale",
  "core_name": "Wolfdale",
  "socket_type": [
    "LGA 775"
  ],
  "num_cores": 2,
  "num_threads": "",
  "directx": "",
  "opengl": "",
  "hyper_threading": "No",
  "litho_nm": "45nm",
  "watts": "65W",
  "memory_types": "",
  "ecc": "",
  "mftr_spec_link": "http://ark.intel.com/products/35300/Intel-Pentium-Processor-E5300-2M-Cache-2_60-GHz-800-MHz-FSB",
  "overclockable": "Yes",
  "created_at": "2016-06-27T04:38:11.093Z",
  "title": "Intel Legacy Pentium E5300 2 Core LGA 775 Desktop Processor",
  "part_number": "AT80571PG0642ML",
  "oem": "Yes",
  "cooling_included": "No",
  "type": "cpus",
  "legacy": "Yes",
  "max_memory": "",
  "bus_speed": "800 MHz",
  "data_width": "64-bit",
  "virtualization": "",
  "frequency": "2.6 GHz",
  "max_frequency": "",
  "title_custom": ""
}