{
  "_id": "hN5Xb24PcqXYdKSWb",
  "mftr": "Intel",
  "platform": "Desktop",
  "family": "Legacy Core 2",
  "generation": "",
  "model": "Q9500",
  "microarch": "Yorkfield",
  "core_name": "Yorkfield",
  "socket_type": [
    "LGA 775"
  ],
  "num_cores": 4,
  "num_threads": "",
  "directx": "",
  "opengl": "",
  "hyper_threading": "No",
  "litho_nm": "45nm",
  "watts": "95W",
  "memory_types": "",
  "ecc": "",
  "mftr_spec_link": "http://ark.intel.com/products/37159/Intel-Core2-Quad-Processor-Q9500-6M-Cache-2_83-GHz-1333-MHz-FSB",
  "overclockable": "Yes",
  "created_at": "2016-06-27T21:35:01.060Z",
  "title": "Intel Legacy Core 2 Q9500 4 Core LGA 775 Desktop Processor",
  "part_number": "AT80580PJ0736ML",
  "oem": "Yes",
  "cooling_included": "No",
  "type": "cpus",
  "legacy": "Yes",
  "max_memory": "",
  "bus_speed": "1333 MHz",
  "data_width": "64-bit",
  "virtualization": "Yes",
  "frequency": "2.83 GHz",
  "max_frequency": "",
  "title_custom": ""
}