{
  "_id": "ot67u4ML2hpNtuhMe",
  "mftr": "Intel",
  "platform": "Desktop",
  "family": "Core i7 Extreme",
  "generation": "Previous Generation",
  "model": "i7-965",
  "microarch": "Bloomfield",
  "core_name": "Bloomfield",
  "socket_type": [
    "LGA 1366"
  ],
  "num_cores": 4,
  "num_threads": 8,
  "directx": "",
  "opengl": "",
  "hyper_threading": "Yes",
  "litho_nm": "45nm",
  "watts": "130W",
  "memory_types": "DDR3 800/1066 ",
  "ecc": "No",
  "mftr_spec_link": "http://ark.intel.com/products/37149/Intel-Core-i7-965-Processor-Extreme-Edition-8M-Cache-3_20-GHz-6_40-GTs-Intel-QPI",
  "overclockable": "Yes",
  "created_at": "2016-06-26T10:50:01.286Z",
  "title": "Intel Core i7 Extreme i7-965 4 Core LGA 1366 Desktop Processor",
  "part_number": "AT80601000918AA",
  "oem": "Yes",
  "cooling_included": "No",
  "type": "cpus",
  "legacy": "No",
  "max_memory": "24GB",
  "bus_speed": "6.4 GT/s QPI",
  "data_width": "64-bit",
  "virtualization": "Yes",
  "frequency": "3.2 GHz",
  "max_frequency": "3.46 GHz",
  "title_custom": ""
}