{
  "_id": "LgoNBhhkdJJRPAXvc",
  "mftr": "Intel",
  "platform": "Desktop",
  "family": "Atom",
  "generation": "",
  "model": "330",
  "microarch": "Diamondville",
  "core_name": "Diamondville",
  "socket_type": [
    "PBGA437"
  ],
  "num_cores": 2,
  "num_threads": "",
  "directx": "",
  "opengl": "",
  "hyper_threading": "Yes",
  "litho_nm": "45nm",
  "watts": "8W",
  "memory_types": "",
  "ecc": "",
  "mftr_spec_link": "http://ark.intel.com/products/35641/Intel-Atom-Processor-330-1M-Cache-1_60-GHz-533-MHz-FSB",
  "overclockable": "Yes",
  "created_at": "2016-06-26T23:33:10.001Z",
  "title": "Intel Atom 330 2 Core PBGA437 Desktop Processor",
  "part_number": "AU80587RE0251M",
  "oem": "Yes",
  "cooling_included": "No",
  "type": "cpus",
  "legacy": "No",
  "max_memory": "",
  "bus_speed": "533 MHz",
  "data_width": "64-bit",
  "virtualization": "No",
  "frequency": "1.6 GHz",
  "max_frequency": "",
  "title_custom": ""
}