{
  "_id": "mxbfQcCEdat7yrmda",
  "mftr": "Intel",
  "platform": "Desktop",
  "family": "Legacy Pentium",
  "generation": "",
  "model": "",
  "microarch": "Coppermine",
  "core_name": "Coppermine",
  "socket_type": [
    "Socket 370",
    "SECC 2495"
  ],
  "num_cores": 1,
  "num_threads": "",
  "directx": "",
  "opengl": "",
  "hyper_threading": "",
  "litho_nm": "180nm",
  "watts": "26.1W",
  "memory_types": "",
  "ecc": "",
  "mftr_spec_link": "http://ark.intel.com/products/27555/Intel-Pentium-III-Processor-866-MHz-256K-Cache-133-MHz-FSB",
  "overclockable": "Yes",
  "created_at": "2016-06-27T04:38:35.262Z",
  "title": "Intel Legacy Pentium 1 Core Socket 370, SECC 2495 Desktop Processor",
  "part_number": "BK80526F866256E",
  "oem": "Yes",
  "cooling_included": "No",
  "type": "cpus",
  "legacy": "Yes",
  "max_memory": "",
  "bus_speed": "133 MHz",
  "data_width": "32-bit",
  "virtualization": "No",
  "frequency": "866 MHz",
  "max_frequency": "",
  "title_custom": ""
}