{
  "_id": "4MfxTBptente5kGBD",
  "mftr": "Intel",
  "platform": "Desktop",
  "family": "Core i7",
  "generation": "Previous Generation",
  "model": "i7-860S",
  "microarch": "Lynnfield",
  "core_name": "Lynnfield",
  "socket_type": [
    "LGA 1156"
  ],
  "num_cores": 4,
  "num_threads": 8,
  "directx": "",
  "opengl": "",
  "hyper_threading": "Yes",
  "litho_nm": "45nm",
  "watts": "82W",
  "memory_types": "DDR3 1066/1333",
  "ecc": "No",
  "mftr_spec_link": "http://ark.intel.com/products/41318/Intel-Core-i7-860S-Processor-8M-Cache-2_53-GHz",
  "overclockable": "Yes",
  "created_at": "2016-06-26T22:51:37.349Z",
  "title": "Intel Core i7 i7-860S 4 Core LGA 1156 Desktop Processor",
  "part_number": "BV80605003210AD",
  "oem": "Yes",
  "cooling_included": "No",
  "type": "cpus",
  "legacy": "No",
  "max_memory": "16GB",
  "bus_speed": "2.5 GT/s DMI",
  "data_width": "64-bit",
  "virtualization": "Yes",
  "frequency": "2.53 GHz",
  "max_frequency": "3.46 GHz",
  "title_custom": ""
}