{
  "_id": "g4v4Rio7YcWAEpoy7",
  "mftr": "Intel",
  "platform": "Desktop",
  "family": "Core i5",
  "generation": "Previous Generation",
  "model": "i5-760",
  "microarch": "Lynnfield",
  "core_name": "Lynnfield",
  "socket_type": [
    "LGA 1156"
  ],
  "num_cores": 4,
  "num_threads": 4,
  "directx": "",
  "opengl": "",
  "hyper_threading": "No",
  "litho_nm": "45nm",
  "watts": "95W",
  "memory_types": "DDR3 1066/1333",
  "ecc": "No",
  "mftr_spec_link": "http://ark.intel.com/products/48496/Intel-Core-i5-760-Processor-8M-Cache-2_80-GHz",
  "overclockable": "Yes",
  "created_at": "2016-06-26T22:54:47.879Z",
  "title": "Intel Core i5 i5-760 4 Core LGA 1156 Desktop Processor",
  "part_number": "BV80605001908AN",
  "oem": "Yes",
  "cooling_included": "No",
  "type": "cpus",
  "legacy": "No",
  "max_memory": "16GB",
  "bus_speed": "2.5 GT/s DMI",
  "data_width": "64-bit",
  "virtualization": "Yes",
  "frequency": "2.8 GHz",
  "max_frequency": "3.33 GHz",
  "title_custom": ""
}