{
  "_id": "YFJP89S2GNPo4k8Zz",
  "mftr": "Intel",
  "platform": "Desktop",
  "family": "Legacy Celeron",
  "generation": "",
  "model": "330J",
  "microarch": "Prescott",
  "core_name": "Prescott",
  "socket_type": [
    "LGA 478",
    "LGA 775"
  ],
  "num_cores": 1,
  "num_threads": "",
  "directx": "",
  "opengl": "",
  "hyper_threading": "No",
  "litho_nm": "90nm",
  "watts": "84W",
  "memory_types": "",
  "ecc": "No",
  "mftr_spec_link": "http://ark.intel.com/products/27114/Intel-Celeron-D-Processor-330J-256K-Cache-2_66-GHz-533-MHz-FSB",
  "overclockable": "Yes",
  "created_at": "2016-06-27T21:29:31.216Z",
  "title": "Intel Legacy Celeron 330J 1 Core LGA 478, LGA 775 Desktop Processor",
  "part_number": "BX80547RE2667C",
  "oem": "No",
  "cooling_included": "Yes",
  "type": "cpus",
  "legacy": "Yes",
  "max_memory": "",
  "bus_speed": "533 MHz",
  "data_width": "32-bit",
  "virtualization": "No",
  "frequency": "2.66 GHz",
  "max_frequency": "",
  "title_custom": ""
}