{
  "_id": "XLLsoCp4jicwjfFk9",
  "mftr": "Intel",
  "platform": "Desktop",
  "family": "Core i3",
  "generation": "Previous Generation",
  "model": "i3-550",
  "microarch": "Clarkdale",
  "core_name": "Clarkdale",
  "socket_type": [
    "LGA 1156"
  ],
  "num_cores": 2,
  "num_threads": 4,
  "directx": "",
  "opengl": "",
  "hyper_threading": "Yes",
  "litho_nm": "32nm",
  "watts": "73W",
  "memory_types": "DDR3 1066/1333",
  "ecc": "",
  "mftr_spec_link": "http://ark.intel.com/products/48505/Intel-Core-i3-550-Processor-4M-Cache-3_20-GHz",
  "overclockable": "Yes",
  "created_at": "2016-06-26T23:27:54.487Z",
  "title": "Intel Core i3 i3-550 2 Core LGA 1156 Desktop Processor",
  "part_number": "BX80616I3550",
  "oem": "No",
  "cooling_included": "Yes",
  "type": "cpus",
  "legacy": "No",
  "max_memory": "16GB",
  "bus_speed": "2.5 GT/s DMI",
  "data_width": "64-bit",
  "virtualization": "Yes",
  "frequency": "3.2 GHz",
  "max_frequency": "",
  "title_custom": ""
}