{
  "_id": "8EXf6e7Mg6tDC9qWo",
  "mftr": "Intel",
  "platform": "Desktop",
  "family": "Legacy Core 2",
  "generation": "",
  "model": "E6300",
  "microarch": "Conroe",
  "core_name": "Conroe",
  "socket_type": [
    "LGA 775",
    "LGA 775"
  ],
  "num_cores": 2,
  "num_threads": "",
  "directx": "",
  "opengl": "",
  "hyper_threading": "No",
  "litho_nm": "65nm",
  "watts": "65W",
  "memory_types": "",
  "ecc": "",
  "mftr_spec_link": "http://ark.intel.com/products/27248/Intel-Core2-Duo-Processor-E6300-2M-Cache-1_86-GHz-1066-MHz-FSB",
  "overclockable": "Yes",
  "created_at": "2016-06-27T21:33:24.180Z",
  "title": "Intel Legacy Core 2 E6300 2 Core LGA 775, LGA 775 Desktop Processor",
  "part_number": "BX80557E6300T2",
  "oem": "No",
  "cooling_included": "Yes",
  "type": "cpus",
  "legacy": "Yes",
  "max_memory": "",
  "bus_speed": "1066 MHz",
  "data_width": "64-bit",
  "virtualization": "Yes",
  "frequency": "1.86 GHz",
  "max_frequency": "",
  "title_custom": ""
}