{
  "_id": "ns9QKxTc6AAg6ze4k",
  "mftr": "Intel",
  "platform": "Desktop",
  "family": "Legacy Core 2",
  "generation": "",
  "model": "Q6700",
  "microarch": "Kentsfield",
  "core_name": "Kentsfield",
  "socket_type": [
    "LGA 775"
  ],
  "num_cores": 4,
  "num_threads": "",
  "directx": "",
  "opengl": "",
  "hyper_threading": "No",
  "litho_nm": "65nm",
  "watts": "105W",
  "memory_types": "",
  "ecc": "",
  "mftr_spec_link": "http://ark.intel.com/products/30790/Intel-Core2-Quad-Processor-Q6700-8M-Cache-2_66-GHz-1066-MHz-FSB",
  "overclockable": "Yes",
  "created_at": "2016-06-27T21:35:06.245Z",
  "title": "Intel Legacy Core 2 Q6700 4 Core LGA 775 Desktop Processor",
  "part_number": "BX80562Q6700",
  "oem": "No",
  "cooling_included": "Yes",
  "type": "cpus",
  "legacy": "Yes",
  "max_memory": "",
  "bus_speed": "1066 MHz",
  "data_width": "64-bit",
  "virtualization": "Yes",
  "frequency": "2.66 GHz",
  "max_frequency": "",
  "title_custom": ""
}