{
  "_id": "HJHoPp3HANLKCfFrC",
  "mftr": "Intel",
  "platform": "Desktop",
  "family": "Core i7",
  "generation": "4th",
  "model": "i7-4770K",
  "microarch": "Haswell",
  "core_name": "Haswell",
  "socket_type": [
    "LGA 1150"
  ],
  "num_cores": 4,
  "num_threads": 8,
  "directx": "11.2/12",
  "opengl": 4.3,
  "hyper_threading": "Yes",
  "litho_nm": "22nm",
  "watts": "84W",
  "memory_types": "DDR3-1333/1600, DDR3L-1333/1600 @ 1.5V",
  "ecc": "No",
  "mftr_spec_link": "http://ark.intel.com/products/75123/Intel-Core-i7-4770K-Processor-8M-Cache-up-to-3_90-GHz",
  "overclockable": "Yes",
  "created_at": "2016-06-25T00:23:14.460Z",
  "title": "Intel Core i7 i7-4770K 4 Core LGA 1150 Desktop Processor",
  "part_number": "BX80646I74770K",
  "oem": "No",
  "cooling_included": "Yes",
  "type": "cpus",
  "legacy": "No",
  "max_memory": "32GB",
  "bus_speed": "5 GT/s DMI2",
  "data_width": "64-bit",
  "virtualization": "Yes",
  "frequency": "3.5 GHz",
  "max_frequency": "3.9 GHz",
  "title_custom": ""
}