{
  "_id": "8tknYp6qMdngrEz57",
  "mftr": "Intel",
  "platform": "Desktop",
  "family": "Legacy Pentium",
  "generation": "",
  "model": "925",
  "microarch": "Presler",
  "core_name": "Presler",
  "socket_type": [
    "LGA 775"
  ],
  "num_cores": 2,
  "num_threads": "",
  "directx": "",
  "opengl": "",
  "hyper_threading": "No",
  "litho_nm": "65nm",
  "watts": "95W",
  "memory_types": "",
  "ecc": "No",
  "mftr_spec_link": "http://ark.intel.com/products/27517/Intel-Pentium-D-Processor-925-4M-Cache-3_00-GHz-800-MHz-FSB",
  "overclockable": "Yes",
  "created_at": "2016-06-27T04:31:43.496Z",
  "title": "Intel Legacy Pentium 925 2 Core LGA 775 Desktop Processor",
  "part_number": "BX80553925",
  "oem": "No",
  "cooling_included": "Yes",
  "type": "cpus",
  "legacy": "Yes",
  "max_memory": "",
  "bus_speed": "800 MHz",
  "data_width": "64-bit",
  "virtualization": "No",
  "frequency": "3 GHz",
  "max_frequency": "",
  "title_custom": ""
}