{
  "_id": "NYXjuNwmTbxqDwTow",
  "mftr": "Intel",
  "platform": "Desktop",
  "family": "Legacy Pentium",
  "generation": "",
  "model": "",
  "microarch": "Katmai",
  "core_name": "Katmai",
  "socket_type": [
    "SECC 2242",
    "SECC 2576"
  ],
  "num_cores": 1,
  "num_threads": "",
  "directx": "",
  "opengl": "",
  "hyper_threading": "",
  "litho_nm": "250nm",
  "watts": "34.5W",
  "memory_types": "",
  "ecc": "",
  "mftr_spec_link": "http://ark.intel.com/products/27545/Intel-Pentium-III-Processor-600-MHz-512K-Cache-100-MHz-FSB",
  "overclockable": "Yes",
  "created_at": "2016-06-27T04:33:02.740Z",
  "title": "Intel Legacy Pentium 1 Core SECC 2242, SECC 2576 Desktop Processor",
  "part_number": "BX80525U600512E",
  "oem": "No",
  "cooling_included": "Yes",
  "type": "cpus",
  "legacy": "Yes",
  "max_memory": "",
  "bus_speed": "100 MHz",
  "data_width": "32-bit",
  "virtualization": "No",
  "frequency": "600 MHz",
  "max_frequency": "",
  "title_custom": ""
}