{
  "_id": "Bo7zfDbHP4uvWyqLN",
  "mftr": "Intel",
  "platform": "Desktop",
  "family": "Core i7",
  "generation": "Previous Generation",
  "model": "i7-940",
  "microarch": "Bloomfield",
  "core_name": "Bloomfield",
  "socket_type": [
    "LGA 1366"
  ],
  "num_cores": 4,
  "num_threads": 8,
  "directx": "",
  "opengl": "",
  "hyper_threading": "Yes",
  "litho_nm": "45nm",
  "watts": "130W",
  "memory_types": "DDR3 800/1066 ",
  "ecc": "No",
  "mftr_spec_link": "http://ark.intel.com/products/37148/Intel-Core-i7-940-Processor-8M-Cache-2_93-GHz-4_80-GTs-Intel-QPI",
  "overclockable": "Yes",
  "created_at": "2016-06-26T22:52:01.576Z",
  "title": "Intel Core i7 i7-940 4 Core LGA 1366 Desktop Processor",
  "part_number": "BX80601940",
  "oem": "No",
  "cooling_included": "Yes",
  "type": "cpus",
  "legacy": "No",
  "max_memory": "24GB",
  "bus_speed": "4.8 GT/s QPI",
  "data_width": "64-bit",
  "virtualization": "Yes",
  "frequency": "2.93 GHz",
  "max_frequency": "3.2 GHz",
  "title_custom": ""
}