{
  "_id": "bfXLLbnS8PXkChtgJ",
  "mftr": "Intel",
  "platform": "Desktop",
  "family": "Legacy Core 2",
  "generation": "",
  "model": "Q8200",
  "microarch": "Yorkfield",
  "core_name": "Yorkfield",
  "socket_type": [
    "LGA 775"
  ],
  "num_cores": 4,
  "num_threads": "",
  "directx": "",
  "opengl": "",
  "hyper_threading": "No",
  "litho_nm": "45nm",
  "watts": "95W",
  "memory_types": "",
  "ecc": "",
  "mftr_spec_link": "http://ark.intel.com/products/36547/Intel-Core2-Quad-Processor-Q8200-4M-Cache-2_33-GHz-1333-MHz-FSB",
  "overclockable": "Yes",
  "created_at": "2016-06-27T21:35:05.203Z",
  "title": "Intel Legacy Core 2 Q8200 4 Core LGA 775 Desktop Processor",
  "part_number": "BX80580Q8200",
  "oem": "No",
  "cooling_included": "Yes",
  "type": "cpus",
  "legacy": "Yes",
  "max_memory": "",
  "bus_speed": "1333 MHz",
  "data_width": "64-bit",
  "virtualization": "No",
  "frequency": "2.33 GHz",
  "max_frequency": "",
  "title_custom": ""
}