{
  "_id": "aiEomvCXbA6hMBfn9",
  "mftr": "Intel",
  "platform": "Desktop",
  "family": "Legacy Pentium",
  "generation": "",
  "model": "820",
  "microarch": "Smithfield",
  "core_name": "Smithfield",
  "socket_type": [
    "LGA 775"
  ],
  "num_cores": 2,
  "num_threads": "",
  "directx": "",
  "opengl": "",
  "hyper_threading": "No",
  "litho_nm": "90nm",
  "watts": "95W",
  "memory_types": "",
  "ecc": "No",
  "mftr_spec_link": "http://ark.intel.com/products/27512/Intel-Pentium-D-Processor-820-2M-Cache-2_80-GHz-800-MHz-FSB",
  "overclockable": "Yes",
  "created_at": "2016-06-27T04:30:55.018Z",
  "title": "Intel Legacy Pentium 820 2 Core LGA 775 Desktop Processor",
  "part_number": "BX80551PG2800FT",
  "oem": "No",
  "cooling_included": "Yes",
  "type": "cpus",
  "legacy": "Yes",
  "max_memory": "",
  "bus_speed": "800 MHz",
  "data_width": "64-bit",
  "virtualization": "No",
  "frequency": "2.8 GHz",
  "max_frequency": "",
  "title_custom": ""
}