{
  "_id": "sDNs2cdkNHzzY4CZ3",
  "mftr": "Intel",
  "platform": "Desktop",
  "family": "Core i3",
  "generation": "3rd",
  "model": "i3-3250",
  "microarch": "Ivy Bridge",
  "core_name": "Ivy Bridge",
  "socket_type": [
    "LGA 1155"
  ],
  "num_cores": 2,
  "num_threads": 4,
  "directx": "",
  "opengl": "",
  "hyper_threading": "Yes",
  "litho_nm": "22nm",
  "watts": "55W",
  "memory_types": "DDR3 1333/1600",
  "ecc": "No",
  "mftr_spec_link": "http://ark.intel.com/products/74744/Intel-Core-i3-3250-Processor-3M-Cache-3_50-GHz#@ordering",
  "overclockable": "Yes",
  "created_at": "2016-06-26T05:41:41.025Z",
  "title": "Intel Core i3 i3-3250 2 Core LGA 1155 Desktop Processor",
  "part_number": "BX80637I33250",
  "oem": "No",
  "cooling_included": "Yes",
  "type": "cpus",
  "legacy": "No",
  "max_memory": "32GB",
  "bus_speed": "5 GT/s DMI",
  "data_width": "64-bit",
  "virtualization": "Yes",
  "frequency": "3.5 GHz",
  "max_frequency": "",
  "title_custom": ""
}