{
  "_id": "cJ5FbCDBFrxR9zSXg",
  "mftr": "Intel",
  "platform": "Desktop",
  "family": "Legacy Core 2",
  "generation": "",
  "model": "E4300",
  "microarch": "Conroe",
  "core_name": "Conroe",
  "socket_type": [
    "LGA 775"
  ],
  "num_cores": 2,
  "num_threads": "",
  "directx": "",
  "opengl": "",
  "hyper_threading": "No",
  "litho_nm": "65nm",
  "watts": "65W",
  "memory_types": "",
  "ecc": "",
  "mftr_spec_link": "http://ark.intel.com/products/28024/Intel-Core2-Duo-Processor-E4300-2M-Cache-1_80-GHz-800-MHz-FSB",
  "overclockable": "Yes",
  "created_at": "2016-06-27T21:33:30.442Z",
  "title": "Intel Legacy Core 2 E4300 2 Core LGA 775 Desktop Processor",
  "part_number": "BX80557E4300",
  "oem": "No",
  "cooling_included": "Yes",
  "type": "cpus",
  "legacy": "Yes",
  "max_memory": "",
  "bus_speed": "800 MHz",
  "data_width": "64-bit",
  "virtualization": "No",
  "frequency": "1.8 GHz",
  "max_frequency": "",
  "title_custom": ""
}