{
  "_id": "jeZjkqoz6v7f32C2G",
  "mftr": "Intel",
  "platform": "Desktop",
  "family": "Legacy Pentium",
  "generation": "",
  "model": "",
  "microarch": "Willamette",
  "core_name": "Willamette",
  "socket_type": [
    "Socket 423",
    "Socket 478"
  ],
  "num_cores": 1,
  "num_threads": "",
  "directx": "",
  "opengl": "",
  "hyper_threading": "No",
  "litho_nm": "180nm",
  "watts": "54.7W",
  "memory_types": "",
  "ecc": "",
  "mftr_spec_link": "http://ark.intel.com/products/27422/Intel-Pentium-4-Processor-1_40-GHz-256K-Cache-400-MHz-FSB",
  "overclockable": "Yes",
  "created_at": "2016-06-27T04:05:01.971Z",
  "title": "Intel Legacy Pentium 1 Core Socket 423, Socket 478 Desktop Processor",
  "part_number": "BX80528JK140GR",
  "oem": "No",
  "cooling_included": "Yes",
  "type": "cpus",
  "legacy": "Yes",
  "max_memory": "",
  "bus_speed": "400 MHz",
  "data_width": "32-bit",
  "virtualization": "No",
  "frequency": "1.4 GHz",
  "max_frequency": "",
  "title_custom": ""
}