{
  "_id": "NebHhdsJAob4B4qNp",
  "mftr": "Intel",
  "platform": "Desktop",
  "family": "Legacy Pentium",
  "generation": "",
  "model": "",
  "microarch": "Northwood",
  "core_name": "Northwood",
  "socket_type": [
    "LGA 775",
    "LGA 478",
    "LGA 775",
    "Socket 478"
  ],
  "num_cores": 1,
  "num_threads": "",
  "directx": "",
  "opengl": "",
  "hyper_threading": "Yes",
  "litho_nm": "130nm",
  "watts": "102.9W",
  "memory_types": "",
  "ecc": "",
  "mftr_spec_link": "http://ark.intel.com/products/27490/Pentium-4-Processor-Extreme-Edition-supporting-HT-Technology-3_40-GHz-2M-Cache-800-MHz-FSB",
  "overclockable": "Yes",
  "created_at": "2016-06-27T04:03:47.657Z",
  "title": "Intel Legacy Pentium 1 Core LGA 775, LGA 478, LGA 775, Socket 478 Desktop Processor",
  "part_number": "BX80532PG3400FS",
  "oem": "No",
  "cooling_included": "Yes",
  "type": "cpus",
  "legacy": "Yes",
  "max_memory": "",
  "bus_speed": "800 MHz",
  "data_width": "32-bit",
  "virtualization": "No",
  "frequency": "3.4 GHz",
  "max_frequency": "",
  "title_custom": ""
}