{
  "_id": "fDSgRmBhxjCpsCrsH",
  "mftr": "Intel",
  "platform": "Desktop",
  "family": "Legacy Celeron",
  "generation": "",
  "model": "346",
  "microarch": "Prescott",
  "core_name": "Prescott",
  "socket_type": [
    "LGA 775"
  ],
  "num_cores": 1,
  "num_threads": "",
  "directx": "",
  "opengl": "",
  "hyper_threading": "No",
  "litho_nm": "90nm",
  "watts": "84W",
  "memory_types": "",
  "ecc": "No",
  "mftr_spec_link": "http://ark.intel.com/products/27125/Intel-Celeron-D-Processor-346-256K-Cache-3_06-GHz-533-MHz-FSB",
  "overclockable": "Yes",
  "created_at": "2016-06-27T21:29:37.422Z",
  "title": "Intel Legacy Celeron 346 1 Core LGA 775 Desktop Processor",
  "part_number": "BX80547RE3066CN",
  "oem": "No",
  "cooling_included": "Yes",
  "type": "cpus",
  "legacy": "Yes",
  "max_memory": "",
  "bus_speed": "533 MHz",
  "data_width": "64-bit",
  "virtualization": "No",
  "frequency": "3.06 GHz",
  "max_frequency": "",
  "title_custom": ""
}