{
  "_id": "sqfHkmSmja8iQ89FZ",
  "mftr": "Intel",
  "platform": "Desktop",
  "family": "Pentium",
  "generation": "",
  "model": "G4500",
  "microarch": "Skylake",
  "core_name": "Skylake",
  "socket_type": [
    "LGA 1151"
  ],
  "num_cores": 2,
  "num_threads": 2,
  "directx": 12,
  "opengl": 4.4,
  "hyper_threading": "No",
  "litho_nm": "14nm",
  "watts": "51W",
  "memory_types": "DDR4-1866/2133, DDR3L-1333/1600 @ 1.35V",
  "ecc": "Yes",
  "mftr_spec_link": "http://ark.intel.com/products/90730/Intel-Pentium-Processor-G4500-3M-Cache-3_50-GHz",
  "overclockable": "Yes",
  "created_at": "2016-06-27T03:41:06.551Z",
  "title": "Intel Pentium G4500 2 Core LGA 1151 Desktop Processor",
  "part_number": "BX80662G4500",
  "oem": "No",
  "cooling_included": "Yes",
  "type": "cpus",
  "legacy": "No",
  "max_memory": "64GB",
  "bus_speed": "8 GT/s DMI3",
  "data_width": "64-bit",
  "virtualization": "Yes",
  "frequency": "3.5 GHz",
  "max_frequency": "",
  "title_custom": ""
}