{
  "_id": "8MsWDcWphMppf9jmB",
  "mftr": "Intel",
  "platform": "Desktop",
  "family": "Core i5",
  "generation": "3rd",
  "model": "i5-3470S",
  "microarch": "Ivy Bridge",
  "core_name": "Ivy Bridge",
  "socket_type": [
    "LGA 1155"
  ],
  "num_cores": 4,
  "num_threads": 4,
  "directx": "",
  "opengl": "",
  "hyper_threading": "No",
  "litho_nm": "22nm",
  "watts": "65W",
  "memory_types": "DDR3 1333/1600",
  "ecc": "No",
  "mftr_spec_link": "http://ark.intel.com/products/68315/Intel-Core-i5-3470S-Processor-6M-Cache-up-to-3_60-GHz#@ordering",
  "overclockable": "Yes",
  "created_at": "2016-06-26T01:46:56.317Z",
  "title": "Intel Core i5 i5-3470S 4 Core LGA 1155 Desktop Processor",
  "part_number": "BX80637I53470S",
  "oem": "No",
  "cooling_included": "Yes",
  "type": "cpus",
  "legacy": "No",
  "max_memory": "32GB",
  "bus_speed": "5 GT/s DMI",
  "data_width": "64-bit",
  "virtualization": "Yes",
  "frequency": "2.9 GHz",
  "max_frequency": "3.6 GHz",
  "title_custom": ""
}