{
  "_id": "CbWrRdw3piG6RRKJW",
  "mftr": "Intel",
  "platform": "Desktop",
  "family": "Core i5",
  "generation": "6th",
  "model": "i5-6400",
  "microarch": "Skylake",
  "core_name": "Skylake",
  "socket_type": [
    "LGA 1151"
  ],
  "num_cores": 4,
  "num_threads": 4,
  "directx": 12,
  "opengl": 4.4,
  "hyper_threading": "No",
  "litho_nm": "14nm",
  "watts": "65W",
  "memory_types": "DDR4-1866/2133, DDR3L-1333/1600 @ 1.35V",
  "ecc": "No",
  "mftr_spec_link": "http://ark.intel.com/products/88185/Intel-Core-i5-6400-Processor-6M-Cache-up-to-3_30-GHz",
  "title": "Intel Core i5 i5-6400 4 Core LGA 1151 Desktop Processor",
  "part_number": "BX80662I56400",
  "oem": "No",
  "cooling_included": "Yes",
  "overclockable": "",
  "created_at": "2016-06-23T10:32:54.200Z",
  "type": "cpus",
  "legacy": "No",
  "max_memory": "64GB",
  "bus_speed": "8 GT/s DMI3",
  "data_width": "64-bit",
  "virtualization": "Yes",
  "frequency": "2.7 GHz",
  "max_frequency": "3.3 GHz",
  "title_custom": ""
}