{
  "_id": "DKhe7YnngfT6PF43f",
  "mftr": "Intel",
  "platform": "Desktop",
  "family": "Legacy Pentium",
  "generation": "",
  "model": "",
  "microarch": "Northwood",
  "core_name": "Northwood",
  "socket_type": [
    "Socket 478"
  ],
  "num_cores": 1,
  "num_threads": "",
  "directx": "",
  "opengl": "",
  "hyper_threading": "No",
  "litho_nm": "130nm",
  "watts": "68.4W",
  "memory_types": "",
  "ecc": "",
  "mftr_spec_link": "http://ark.intel.com/products/27447/Intel-Pentium-4-Processor-2_80-GHz-512K-Cache-533-MHz-FSB",
  "overclockable": "Yes",
  "created_at": "2016-06-27T04:31:51.562Z",
  "title": "Intel Legacy Pentium 1 Core Socket 478 Desktop Processor",
  "part_number": "BX80532PC2800D",
  "oem": "No",
  "cooling_included": "Yes",
  "type": "cpus",
  "legacy": "Yes",
  "max_memory": "",
  "bus_speed": "533 MHz",
  "data_width": "32-bit",
  "virtualization": "No",
  "frequency": "2.8 GHz",
  "max_frequency": "",
  "title_custom": ""
}