{
  "_id": "mzrRxgkwT4ps8xSfs",
  "mftr": "Intel",
  "platform": "Desktop",
  "family": "Legacy Pentium",
  "generation": "",
  "model": "",
  "microarch": "Prescott",
  "core_name": "Prescott",
  "socket_type": [
    "Socket 478"
  ],
  "num_cores": 1,
  "num_threads": "",
  "directx": "",
  "opengl": "",
  "hyper_threading": "",
  "litho_nm": "90nm",
  "watts": "89W",
  "memory_types": "",
  "ecc": "",
  "mftr_spec_link": "http://ark.intel.com/products/27443/Intel-Pentium-4-Processor-2_66-GHz-1M-Cache-533-MHz-FSB",
  "overclockable": "Yes",
  "created_at": "2016-06-27T04:07:50.445Z",
  "title": "Intel Legacy Pentium 1 Core Socket 478 Desktop Processor",
  "part_number": "BX80546PE2667E",
  "oem": "No",
  "cooling_included": "Yes",
  "type": "cpus",
  "legacy": "Yes",
  "max_memory": "",
  "bus_speed": "533 MHz",
  "data_width": "32-bit",
  "virtualization": "No",
  "frequency": "2.66 GHz",
  "max_frequency": "",
  "title_custom": ""
}