{
  "_id": "QMQd9ZTpcBhrGj7dB",
  "mftr": "Intel",
  "platform": "Desktop",
  "family": "Celeron",
  "generation": "",
  "model": "G470",
  "microarch": "Sandy Bridge",
  "core_name": "Sandy Bridge",
  "socket_type": [
    "LGA 1155"
  ],
  "num_cores": 1,
  "num_threads": 2,
  "directx": "",
  "opengl": "",
  "hyper_threading": "Yes",
  "litho_nm": "32nm",
  "watts": "35W",
  "memory_types": "DDR3 1066/1333",
  "ecc": "",
  "mftr_spec_link": "http://ark.intel.com/products/74390/Intel-Celeron-Processor-G470-1_5M-Cache-2_00-GHz",
  "overclockable": "Yes",
  "created_at": "2016-06-27T08:13:49.630Z",
  "title": "Intel Celeron G470 1 Core LGA 1155 Desktop Processor",
  "part_number": "BX80623G470",
  "oem": "No",
  "cooling_included": "Yes",
  "type": "cpus",
  "legacy": "No",
  "max_memory": "32GB",
  "bus_speed": "5 GT/s DMI",
  "data_width": "64-bit",
  "virtualization": "Yes",
  "frequency": "2 GHz",
  "max_frequency": "",
  "title_custom": ""
}