{
  "_id": "SfNCXMsuaqeJqFrwH",
  "mftr": "Intel",
  "platform": "Desktop",
  "family": "Pentium",
  "generation": "",
  "model": "G2130",
  "microarch": "Ivy Bridge",
  "core_name": "Ivy Bridge",
  "socket_type": [
    "LGA 1155"
  ],
  "num_cores": 2,
  "num_threads": 2,
  "directx": "",
  "opengl": "",
  "hyper_threading": "No",
  "litho_nm": "22nm",
  "watts": "55W",
  "memory_types": "DDR3 1333/1600",
  "ecc": "Yes",
  "mftr_spec_link": "http://ark.intel.com/products/71052/Intel-Pentium-Processor-G2130-3M-Cache-3_20-GHz",
  "overclockable": "Yes",
  "created_at": "2016-06-27T03:35:02.394Z",
  "title": "Intel Pentium G2130 2 Core LGA 1155 Desktop Processor",
  "part_number": "BX80637G2130",
  "oem": "No",
  "cooling_included": "Yes",
  "type": "cpus",
  "legacy": "No",
  "max_memory": "32GB",
  "bus_speed": "5 GT/s DMI",
  "data_width": "64-bit",
  "virtualization": "Yes",
  "frequency": "3.2 GHz",
  "max_frequency": "",
  "title_custom": ""
}