{
  "_id": "orQaye4pCCaqi56WW",
  "mftr": "Intel",
  "platform": "Desktop",
  "family": "Celeron",
  "generation": "",
  "model": "G550",
  "microarch": "Sandy Bridge",
  "core_name": "Sandy Bridge",
  "socket_type": [
    "LGA 1155"
  ],
  "num_cores": 2,
  "num_threads": 2,
  "directx": "",
  "opengl": "",
  "hyper_threading": "No",
  "litho_nm": "32nm",
  "watts": "65W",
  "memory_types": "DDR3 1066",
  "ecc": "",
  "mftr_spec_link": "http://ark.intel.com/products/53418/Intel-Celeron-Processor-G550-2M-Cache-2_60-GHz",
  "overclockable": "Yes",
  "created_at": "2016-06-27T08:14:01.783Z",
  "title": "Intel Celeron G550 2 Core LGA 1155 Desktop Processor",
  "part_number": "BX80623G550",
  "oem": "No",
  "cooling_included": "Yes",
  "type": "cpus",
  "legacy": "No",
  "max_memory": "32GB",
  "bus_speed": "5 GT/s DMI",
  "data_width": "64-bit",
  "virtualization": "Yes",
  "frequency": "2.6 GHz",
  "max_frequency": "",
  "title_custom": ""
}