{
  "_id": "xmYWB9Su9FnxgzggC",
  "mftr": "Intel",
  "platform": "Desktop",
  "family": "Core i3",
  "generation": "Previous Generation",
  "model": "i3-540",
  "microarch": "Clarkdale",
  "core_name": "Clarkdale",
  "socket_type": [
    "LGA 1156"
  ],
  "num_cores": 2,
  "num_threads": 4,
  "directx": "",
  "opengl": "",
  "hyper_threading": "Yes",
  "litho_nm": "32nm",
  "watts": "73W",
  "memory_types": "DDR3 1066/1333",
  "ecc": "",
  "mftr_spec_link": "http://ark.intel.com/products/46473/Intel-Core-i3-540-Processor-4M-Cache-3_06-GHz",
  "overclockable": "Yes",
  "created_at": "2016-06-26T23:28:02.624Z",
  "title": "Intel Core i3 i3-540 2 Core LGA 1156 Desktop Processor",
  "part_number": "BX80616I3540",
  "oem": "No",
  "cooling_included": "Yes",
  "type": "cpus",
  "legacy": "No",
  "max_memory": "16GB",
  "bus_speed": "2.5 GT/s DMI",
  "data_width": "64-bit",
  "virtualization": "Yes",
  "frequency": "3.06 GHz",
  "max_frequency": "",
  "title_custom": ""
}