{
  "_id": "p6SwQJRjpdJfSYqib",
  "mftr": "Intel",
  "platform": "Desktop",
  "family": "Legacy Core 2",
  "generation": "",
  "model": "E8200",
  "microarch": "Wolfdale",
  "core_name": "Wolfdale",
  "socket_type": [
    "LGA 775"
  ],
  "num_cores": 2,
  "num_threads": "",
  "directx": "",
  "opengl": "",
  "hyper_threading": "No",
  "litho_nm": "45nm",
  "watts": "65W",
  "memory_types": "",
  "ecc": "",
  "mftr_spec_link": "http://ark.intel.com/products/33909/Intel-Core2-Duo-Processor-E8200-6M-Cache-2_66-GHz-1333-MHz-FSB",
  "overclockable": "Yes",
  "created_at": "2016-06-27T21:34:13.953Z",
  "title": "Intel Legacy Core 2 E8200 2 Core LGA 775 Desktop Processor",
  "part_number": "BX80570E8200A",
  "oem": "No",
  "cooling_included": "Yes",
  "type": "cpus",
  "legacy": "Yes",
  "max_memory": "",
  "bus_speed": "1333 MHz",
  "data_width": "64-bit",
  "virtualization": "Yes",
  "frequency": "2.66 GHz",
  "max_frequency": "",
  "title_custom": ""
}