{
  "_id": "2ZPaAiittfJz6myPz",
  "mftr": "Intel",
  "platform": "Desktop",
  "family": "Legacy Pentium",
  "generation": "",
  "model": "",
  "microarch": "Northwood",
  "core_name": "Northwood",
  "socket_type": [
    "Socket 478"
  ],
  "num_cores": 1,
  "num_threads": "",
  "directx": "",
  "opengl": "",
  "hyper_threading": "Yes",
  "litho_nm": "130nm",
  "watts": "92.1W",
  "memory_types": "",
  "ecc": "",
  "mftr_spec_link": "http://ark.intel.com/products/27489/Pentium-4-Processor-Extreme-Edition-supporting-HT-Technology-3_20-GHz-2M-Cache-800-MHz-FSB",
  "overclockable": "Yes",
  "created_at": "2016-06-27T04:03:59.737Z",
  "title": "Intel Legacy Pentium 1 Core Socket 478 Desktop Processor",
  "part_number": "BX80532PG3200F",
  "oem": "No",
  "cooling_included": "Yes",
  "type": "cpus",
  "legacy": "Yes",
  "max_memory": "",
  "bus_speed": "800 MHz",
  "data_width": "32-bit",
  "virtualization": "No",
  "frequency": "3.2 GHz",
  "max_frequency": "",
  "title_custom": ""
}