{
  "_id": "AwPYJhZ5jr7hYDMG4",
  "mftr": "Intel",
  "platform": "Desktop",
  "family": "Core i5",
  "generation": "4th",
  "model": "i5-4670",
  "microarch": "Haswell",
  "core_name": "Haswell",
  "socket_type": [
    "LGA 1150"
  ],
  "num_cores": 4,
  "num_threads": 4,
  "directx": "11.2/12",
  "opengl": 4.3,
  "hyper_threading": "No",
  "litho_nm": "22nm",
  "watts": "84W",
  "memory_types": "DDR3-1333/1600, DDR3L-1333/1600 @ 1.5V",
  "ecc": "No",
  "mftr_spec_link": "http://ark.intel.com/products/75047/Intel-Core-i5-4670-Processor-6M-Cache-up-to-3_80-GHz#@ordering",
  "overclockable": "Yes",
  "created_at": "2016-06-25T10:38:11.238Z",
  "title": "Intel Core i5 i5-4670 4 Core LGA 1150 Desktop Processor",
  "part_number": "BX80646I54670",
  "oem": "No",
  "cooling_included": "Yes",
  "type": "cpus",
  "legacy": "No",
  "max_memory": "32GB",
  "bus_speed": "5 GT/s DMI2",
  "data_width": "64-bit",
  "virtualization": "Yes",
  "frequency": "3.4 GHz",
  "max_frequency": "3.8 GHz",
  "title_custom": ""
}