{
  "_id": "xEuGv733PSaWrrfbh",
  "mftr": "Intel",
  "platform": "Desktop",
  "family": "Legacy Celeron",
  "generation": "",
  "model": "",
  "microarch": "Coppermine",
  "core_name": "Coppermine",
  "socket_type": [
    "Socket 370"
  ],
  "num_cores": 1,
  "num_threads": "",
  "directx": "",
  "opengl": "",
  "hyper_threading": "No",
  "litho_nm": "180nm",
  "watts": "20.8W",
  "memory_types": "",
  "ecc": "No",
  "mftr_spec_link": "http://ark.intel.com/products/27197/Intel-Celeron-Processor-800-MHz-128K-Cache-100-MHz-FSB",
  "overclockable": "Yes",
  "created_at": "2016-06-27T21:30:59.366Z",
  "title": "Intel Legacy Celeron 1 Core Socket 370 Desktop Processor",
  "part_number": "BX80526F800128",
  "oem": "No",
  "cooling_included": "Yes",
  "type": "cpus",
  "legacy": "Yes",
  "max_memory": "",
  "bus_speed": "100 MHz",
  "data_width": "32-bit",
  "virtualization": "No",
  "frequency": "800 MHz",
  "max_frequency": "",
  "title_custom": ""
}