{
  "_id": "ZbjfTYqT4sX9mxqr7",
  "mftr": "Intel",
  "platform": "Desktop",
  "family": "Legacy Celeron",
  "generation": "",
  "model": "",
  "microarch": "Mendocino",
  "core_name": "Mendocino",
  "socket_type": [
    "Socket 370",
    "SEPP242",
    "SEPP540"
  ],
  "num_cores": 1,
  "num_threads": "",
  "directx": "",
  "opengl": "",
  "hyper_threading": "No",
  "litho_nm": "250nm",
  "watts": "19.7W",
  "memory_types": "",
  "ecc": "No",
  "mftr_spec_link": "http://ark.intel.com/products/27184/Intel-Celeron-Processor-333-MHz-128K-Cache-66-MHz-FSB",
  "overclockable": "Yes",
  "created_at": "2016-06-27T21:31:35.427Z",
  "title": "Intel Legacy Celeron 1 Core Socket 370, SEPP242, SEPP540 Desktop Processor",
  "part_number": "BX80524R333128",
  "oem": "No",
  "cooling_included": "Yes",
  "type": "cpus",
  "legacy": "Yes",
  "max_memory": "",
  "bus_speed": "66 MHz",
  "data_width": "32-bit",
  "virtualization": "No",
  "frequency": "333 MHz",
  "max_frequency": "",
  "title_custom": ""
}