{
  "_id": "E7wBTGiecNeiWvsBF",
  "mftr": "Intel",
  "platform": "Desktop",
  "family": "Pentium",
  "generation": "",
  "model": "G870",
  "microarch": "Sandy Bridge",
  "core_name": "Sandy Bridge",
  "socket_type": [
    "LGA 1155"
  ],
  "num_cores": 2,
  "num_threads": 2,
  "directx": "",
  "opengl": "",
  "hyper_threading": "No",
  "litho_nm": "32nm",
  "watts": "65W",
  "memory_types": "DDR3 1066/1333",
  "ecc": "",
  "mftr_spec_link": "http://ark.intel.com/products/53493/Intel-Pentium-Processor-G870-3M-Cache-3_10-GHz",
  "overclockable": "Yes",
  "created_at": "2016-06-27T03:35:46.917Z",
  "title": "Intel Pentium G870 2 Core LGA 1155 Desktop Processor",
  "part_number": "BX80623G870",
  "oem": "No",
  "cooling_included": "Yes",
  "type": "cpus",
  "legacy": "No",
  "max_memory": "32GB",
  "bus_speed": "5 GT/s DMI",
  "data_width": "64-bit",
  "virtualization": "Yes",
  "frequency": "3.1 GHz",
  "max_frequency": "",
  "title_custom": ""
}