{
  "_id": "RRdqJ2hKBJAq6JCDo",
  "mftr": "Intel",
  "platform": "Desktop",
  "family": "Legacy Core 2",
  "generation": "",
  "model": "E7400",
  "microarch": "Wolfdale",
  "core_name": "Wolfdale",
  "socket_type": [
    "LGA 775"
  ],
  "num_cores": 2,
  "num_threads": "",
  "directx": "",
  "opengl": "",
  "hyper_threading": "No",
  "litho_nm": "45nm",
  "watts": "65W",
  "memory_types": "",
  "ecc": "",
  "mftr_spec_link": "http://ark.intel.com/products/36500/Intel-Core2-Duo-Processor-E7400-3M-Cache-2_80-GHz-1066-MHz-FSB",
  "overclockable": "Yes",
  "created_at": "2016-06-27T21:34:16.029Z",
  "title": "Intel Legacy Core 2 E7400 2 Core LGA 775 Desktop Processor",
  "part_number": "BX80571E7400",
  "oem": "No",
  "cooling_included": "Yes",
  "type": "cpus",
  "legacy": "Yes",
  "max_memory": "",
  "bus_speed": "1066 MHz",
  "data_width": "64-bit",
  "virtualization": "",
  "frequency": "2.8 GHz",
  "max_frequency": "",
  "title_custom": ""
}