{
  "_id": "CCexa86Pq5r7FXBkC",
  "mftr": "Intel",
  "platform": "Desktop",
  "family": "Legacy Pentium",
  "generation": "",
  "model": "550J",
  "microarch": "Prescott",
  "core_name": "Prescott",
  "socket_type": [
    "LGA 775"
  ],
  "num_cores": 1,
  "num_threads": "",
  "directx": "",
  "opengl": "",
  "hyper_threading": "Yes",
  "litho_nm": "90nm",
  "watts": "84W",
  "memory_types": "",
  "ecc": "",
  "mftr_spec_link": "http://ark.intel.com/products/30767/Intel-Pentium-4-Processor-550550J-supporting-HT-Technology-1M-Cache-3_40-GHz-800-MHz-FSB",
  "overclockable": "Yes",
  "created_at": "2016-06-27T04:01:48.097Z",
  "title": "Intel Legacy Pentium 550J 1 Core LGA 775 Desktop Processor",
  "part_number": "BX80547PG3400ET",
  "oem": "No",
  "cooling_included": "Yes",
  "type": "cpus",
  "legacy": "Yes",
  "max_memory": "",
  "bus_speed": "800 MHz",
  "data_width": "32-bit",
  "virtualization": "No",
  "frequency": "3.4 GHz",
  "max_frequency": "",
  "title_custom": ""
}