{
  "_id": "Hh43PS3yFzQDjARcs",
  "mftr": "Intel",
  "platform": "Desktop",
  "family": "Legacy Celeron",
  "generation": "",
  "model": "335",
  "microarch": "Prescott",
  "core_name": "Prescott",
  "socket_type": [
    "Socket 478"
  ],
  "num_cores": 1,
  "num_threads": "",
  "directx": "",
  "opengl": "",
  "hyper_threading": "No",
  "litho_nm": "90nm",
  "watts": "73W",
  "memory_types": "",
  "ecc": "No",
  "mftr_spec_link": "http://ark.intel.com/products/27116/Intel-Celeron-D-Processor-335-256K-Cache-2_80-GHz-533-MHz-FSB",
  "overclockable": "Yes",
  "created_at": "2016-06-27T21:29:27.055Z",
  "title": "Intel Legacy Celeron 335 1 Core Socket 478 Desktop Processor",
  "part_number": "BX80546RE2800C",
  "oem": "No",
  "cooling_included": "Yes",
  "type": "cpus",
  "legacy": "Yes",
  "max_memory": "",
  "bus_speed": "533 MHz",
  "data_width": "32-bit",
  "virtualization": "No",
  "frequency": "2.8 GHz",
  "max_frequency": "",
  "title_custom": ""
}