{
  "_id": "RhKYdFWRuomPcRy9y",
  "mftr": "Intel",
  "platform": "Desktop",
  "family": "Intel High End Processors",
  "generation": "",
  "model": "i7-5820K",
  "microarch": "Haswell E",
  "core_name": "Haswell E",
  "socket_type": [
    "LGA 2011-3"
  ],
  "num_cores": 6,
  "num_threads": 12,
  "directx": "",
  "opengl": "",
  "hyper_threading": "Yes",
  "litho_nm": "22nm",
  "watts": "140W",
  "memory_types": "DDR4 1333/1600/2133",
  "ecc": "No",
  "mftr_spec_link": "http://ark.intel.com/products/82932/Intel-Core-i7-5820K-Processor-15M-Cache-up-to-3_60-GHz",
  "overclockable": "Yes",
  "created_at": "2016-06-27T21:43:41.649Z",
  "title": "Intel High End Processors i7-5820K 6 Core LGA 2011-3 Desktop Processor",
  "part_number": "BX80648I75820K",
  "oem": "No",
  "cooling_included": "Yes",
  "type": "cpus",
  "legacy": "No",
  "max_memory": "64GB",
  "data_width": "64-bit",
  "virtualization": "Yes",
  "frequency": "3.3 GHz",
  "max_frequency": "3.6 GHz",
  "title_custom": ""
}