{
  "_id": "GErf8JzttW2c8bP9g",
  "mftr": "Intel",
  "platform": "Desktop",
  "family": "Legacy Pentium",
  "generation": "",
  "model": "550",
  "microarch": "Prescott",
  "core_name": "Prescott",
  "socket_type": [
    "LGA 775",
    "Socket 478"
  ],
  "num_cores": 1,
  "num_threads": "",
  "directx": "",
  "opengl": "",
  "hyper_threading": "Yes",
  "litho_nm": "90nm",
  "watts": "115W",
  "memory_types": "",
  "ecc": "",
  "mftr_spec_link": "http://ark.intel.com/products/27469/Intel-Pentium-4-Processor-550-supporting-HT-Technology-1M-Cache-3_40-GHz-800-MHz-FSB",
  "overclockable": "Yes",
  "created_at": "2016-06-27T04:01:14.962Z",
  "title": "Intel Legacy Pentium 550 1 Core LGA 775, Socket 478 Desktop Processor",
  "part_number": "BX80547PG3400E",
  "oem": "No",
  "cooling_included": "Yes",
  "type": "cpus",
  "legacy": "Yes",
  "max_memory": "",
  "bus_speed": "800 MHz",
  "data_width": "32-bit",
  "virtualization": "No",
  "frequency": "3.4 GHz",
  "max_frequency": "",
  "title_custom": ""
}