{
  "_id": "wca8qLhM4JY9YvdNA",
  "mftr": "Intel",
  "platform": "Desktop",
  "family": "Core i5",
  "generation": "6th",
  "model": "i5-6400T",
  "microarch": "Skylake",
  "core_name": "Skylake",
  "socket_type": [
    "LGA 1151"
  ],
  "num_cores": 4,
  "num_threads": 4,
  "directx": 12,
  "opengl": 4.4,
  "hyper_threading": "No",
  "litho_nm": "14nm",
  "watts": "35W",
  "memory_types": "DDR4-1866/2133, DDR3L-1333/1600 @ 1.35V",
  "ecc": "No",
  "mftr_spec_link": "http://ark.intel.com/products/88187/Intel-Core-i5-6400T-Processor-6M-Cache-up-to-2_80-GHz",
  "title": "Intel Core i5 i5-6400T 4 Core LGA 1151 Desktop Processor",
  "part_number": "BXC80662I56400T",
  "oem": "Yes",
  "cooling_included": "No",
  "overclockable": "",
  "created_at": "2016-06-23T10:31:27.644Z",
  "type": "cpus",
  "legacy": "No",
  "max_memory": "64GB",
  "bus_speed": "8 GT/s DMI3",
  "data_width": "64-bit",
  "virtualization": "Yes",
  "frequency": "2.2 GHz",
  "max_frequency": "2.8 GHz",
  "title_custom": ""
}