{
  "_id": "YFbKqsTsYuMWHnrWM",
  "mftr": "Intel",
  "platform": "Desktop",
  "family": "Core i3",
  "generation": "4th",
  "model": "i3-4350",
  "microarch": "Haswell",
  "core_name": "Haswell",
  "socket_type": [
    "LGA 1150"
  ],
  "num_cores": 2,
  "num_threads": 4,
  "directx": "11.1/12",
  "opengl": 4.3,
  "hyper_threading": "Yes",
  "litho_nm": "22nm",
  "watts": "54W",
  "memory_types": "DDR3-1333/1600, DDR3L-1333/1600 @ 1.5V",
  "ecc": "Yes",
  "mftr_spec_link": "http://ark.intel.com/products/77491/Intel-Core-i3-4350-Processor-4M-Cache-3_60-GHz#@ordering",
  "overclockable": "Yes",
  "created_at": "2016-06-25T22:20:51.917Z",
  "title": "Intel Core i3 i3-4350 2 Core LGA 1150 Desktop Processor",
  "part_number": "CM8064601482464",
  "oem": "Yes",
  "cooling_included": "No",
  "type": "cpus",
  "legacy": "No",
  "max_memory": "32GB",
  "bus_speed": "5 GT/s DMI2",
  "data_width": "64-bit",
  "virtualization": "Yes",
  "frequency": "3.6 GHz",
  "max_frequency": "",
  "title_custom": ""
}