{
  "_id": "iT86hshRdLb6hzgWu",
  "mftr": "Intel",
  "platform": "Desktop",
  "family": "Core i5",
  "generation": "3rd",
  "model": "i5-3330",
  "microarch": "Ivy Bridge",
  "core_name": "Ivy Bridge",
  "socket_type": [
    "LGA 1155"
  ],
  "num_cores": 4,
  "num_threads": 4,
  "directx": "",
  "opengl": "",
  "hyper_threading": "No",
  "litho_nm": "22nm",
  "watts": "77W",
  "memory_types": "DDR3 1333/1600",
  "ecc": "No",
  "mftr_spec_link": "http://ark.intel.com/products/65509/Intel-Core-i5-3330-Processor-6M-Cache-up-to-3_20-GHz#@ordering",
  "overclockable": "Yes",
  "created_at": "2016-06-26T01:48:08.360Z",
  "title": "Intel Core i5 i5-3330 4 Core LGA 1155 Desktop Processor",
  "part_number": "CM8063701134306",
  "oem": "Yes",
  "cooling_included": "No",
  "type": "cpus",
  "legacy": "No",
  "max_memory": "32GB",
  "bus_speed": "5 GT/s DMI",
  "data_width": "64-bit",
  "virtualization": "Yes",
  "frequency": "3 GHz",
  "max_frequency": "3.2 GHz",
  "title_custom": ""
}