{
  "_id": "fzHcMF6YbP7bdzJnE",
  "mftr": "Intel",
  "platform": "Desktop",
  "family": "Core i5",
  "generation": "2nd",
  "model": "i5-2400S",
  "microarch": "Sandy Bridge",
  "core_name": "Sandy Bridge",
  "socket_type": [
    "LGA 1155"
  ],
  "num_cores": 4,
  "num_threads": 4,
  "directx": "",
  "opengl": "",
  "hyper_threading": "No",
  "litho_nm": "32nm",
  "watts": "65W",
  "memory_types": "DDR3 1066/1333",
  "ecc": "No",
  "mftr_spec_link": "http://ark.intel.com/products/52208/Intel-Core-i5-2400S-Processor-6M-Cache-up-to-3_30-GHz",
  "overclockable": "Yes",
  "created_at": "2016-06-26T10:07:21.437Z",
  "title": "Intel Core i5 i5-2400S 4 Core LGA 1155 Desktop Processor",
  "part_number": "CM8062300835404",
  "oem": "Yes",
  "cooling_included": "No",
  "type": "cpus",
  "legacy": "No",
  "max_memory": "32GB",
  "bus_speed": "5 GT/s DMI",
  "data_width": "64-bit",
  "virtualization": "Yes",
  "frequency": "2.5 GHz",
  "max_frequency": "3.3 GHz",
  "title_custom": ""
}