{
  "_id": "ffkhLbzQE6aTavYsp",
  "mftr": "Intel",
  "platform": "Desktop",
  "family": "Core i3",
  "generation": "6th",
  "model": "i3-6300",
  "microarch": "Skylake",
  "core_name": "Skylake",
  "socket_type": [
    "LGA 1151"
  ],
  "num_cores": 2,
  "num_threads": 4,
  "directx": 12,
  "opengl": 4.4,
  "hyper_threading": "Yes",
  "litho_nm": "14nm",
  "watts": "51W",
  "memory_types": "DDR4-1866/2133, DDR3L-1333/1600 @ 1.35V",
  "ecc": "Yes",
  "mftr_spec_link": "http://ark.intel.com/products/90731/Intel-Core-i3-6300-Processor-4M-Cache-3_80-GHz",
  "title": "Intel Core i3 i3-6300 2 Core LGA 1151 Desktop Processor",
  "part_number": "CM8066201926905",
  "oem": "Yes",
  "cooling_included": "No",
  "overclockable": "",
  "created_at": "2016-06-23T22:38:46.907Z",
  "type": "cpus",
  "legacy": "No",
  "max_memory": "64GB",
  "bus_speed": "8 GT/s DMI3",
  "data_width": "64-bit",
  "virtualization": "Yes",
  "frequency": "3.8 GHz",
  "max_frequency": "",
  "title_custom": ""
}