{
  "_id": "ywcXvBYYiP4QRARvy",
  "mftr": "Intel",
  "platform": "Desktop",
  "family": "Celeron",
  "generation": "",
  "model": "G1840",
  "microarch": "Haswell",
  "core_name": "Haswell",
  "socket_type": [
    "LGA 1150"
  ],
  "num_cores": 2,
  "num_threads": 2,
  "directx": "11.1/12",
  "opengl": 4.3,
  "hyper_threading": "No",
  "litho_nm": "22nm",
  "watts": "53W",
  "memory_types": "DDR3-1333, DDR3L-1333 @ 1.5V",
  "ecc": "Yes",
  "mftr_spec_link": "http://ark.intel.com/products/80800/Intel-Celeron-Processor-G1840-2M-Cache-2_80-GHz",
  "overclockable": "Yes",
  "created_at": "2016-06-27T08:12:10.933Z",
  "title": "Intel Celeron G1840 2 Core LGA 1150 Desktop Processor",
  "part_number": "CM8064601562181",
  "oem": "Yes",
  "cooling_included": "No",
  "type": "cpus",
  "legacy": "No",
  "max_memory": "32GB",
  "bus_speed": "5 GT/s DMI2",
  "data_width": "64-bit",
  "virtualization": "Yes",
  "frequency": "2.8 GHz",
  "max_frequency": "",
  "title_custom": ""
}