{
  "_id": "4sA4WDrF3nbwBvycs",
  "mftr": "Intel",
  "platform": "Desktop",
  "family": "Pentium",
  "generation": "",
  "model": "G4500T",
  "microarch": "Skylake",
  "core_name": "Skylake",
  "socket_type": [
    "LGA 1151"
  ],
  "num_cores": 2,
  "num_threads": 2,
  "directx": 12,
  "opengl": 4.4,
  "hyper_threading": "No",
  "litho_nm": "14nm",
  "watts": "35W",
  "memory_types": "DDR4-1866/2133, DDR3L-1333/1600 @ 1.35V",
  "ecc": "Yes",
  "mftr_spec_link": "http://ark.intel.com/products/90725/Intel-Pentium-Processor-G4500T-3M-Cache-3_00-GHz",
  "overclockable": "Yes",
  "created_at": "2016-06-27T03:41:14.690Z",
  "title": "Intel Pentium G4500T 2 Core LGA 1151 Desktop Processor",
  "part_number": "CM8066201927512",
  "oem": "Yes",
  "cooling_included": "No",
  "type": "cpus",
  "legacy": "No",
  "max_memory": "64GB",
  "bus_speed": "8 GT/s DMI3",
  "data_width": "64-bit",
  "virtualization": "Yes",
  "frequency": "3 GHz",
  "max_frequency": "",
  "title_custom": ""
}