{
  "_id": "bKoaskSNNcK5qJgZB",
  "mftr": "Intel",
  "platform": "Desktop",
  "family": "Celeron",
  "generation": "",
  "model": "G440",
  "microarch": "Sandy Bridge",
  "core_name": "Sandy Bridge",
  "socket_type": [
    "LGA 1155"
  ],
  "num_cores": 1,
  "num_threads": 1,
  "directx": "",
  "opengl": "",
  "hyper_threading": "No",
  "litho_nm": "32nm",
  "watts": "35W",
  "memory_types": "DDR3 1066",
  "ecc": "",
  "mftr_spec_link": "http://ark.intel.com/products/58667/Intel-Celeron-Processor-G440-1M-Cache-1_60-GHz",
  "overclockable": "Yes",
  "created_at": "2016-06-27T08:13:34.418Z",
  "title": "Intel Celeron G440 1 Core LGA 1155 Desktop Processor",
  "part_number": "CM8062301088501",
  "oem": "Yes",
  "cooling_included": "No",
  "type": "cpus",
  "legacy": "No",
  "max_memory": "32GB",
  "bus_speed": "5 GT/s DMI",
  "data_width": "64-bit",
  "virtualization": "Yes",
  "frequency": "1.6 GHz",
  "max_frequency": "",
  "title_custom": ""
}