{
  "_id": "wd3RE8ixz95i7s22Z",
  "mftr": "Intel",
  "platform": "Desktop",
  "family": "Core i5",
  "generation": "Previous Generation",
  "model": "i5-655K",
  "microarch": "Clarkdale",
  "core_name": "Clarkdale",
  "socket_type": [
    "LGA 1156"
  ],
  "num_cores": 2,
  "num_threads": 4,
  "directx": "",
  "opengl": "",
  "hyper_threading": "Yes",
  "litho_nm": "32nm",
  "watts": "73W",
  "memory_types": "DDR3 1066/1333",
  "ecc": "",
  "mftr_spec_link": "http://ark.intel.com/products/48750/Intel-Core-i5-655K-Processor-4M-Cache-3_20-GHz",
  "overclockable": "Yes",
  "created_at": "2016-06-26T22:54:31.597Z",
  "title": "Intel Core i5 i5-655K 2 Core LGA 1156 Desktop Processor",
  "part_number": "CM80616003174AO",
  "oem": "Yes",
  "cooling_included": "No",
  "type": "cpus",
  "legacy": "No",
  "max_memory": "16GB",
  "bus_speed": "2.5 GT/s DMI",
  "data_width": "64-bit",
  "virtualization": "Yes",
  "frequency": "3.2 GHz",
  "max_frequency": "3.46 GHz",
  "title_custom": ""
}