{
  "_id": "G9xBnHKD8J4rS5EfC",
  "mftr": "Intel",
  "platform": "Desktop",
  "family": "Core i5",
  "generation": "5th",
  "model": "i5-5675C",
  "microarch": "Broadwell",
  "core_name": "Broadwell",
  "socket_type": [
    "LGA 1150"
  ],
  "num_cores": 4,
  "num_threads": 4,
  "directx": 11.2,
  "opengl": 4.3,
  "hyper_threading": "",
  "litho_nm": "14nm",
  "watts": "65W",
  "memory_types": "DDR3L-1333/1600 @ 1.5V",
  "ecc": "No",
  "mftr_spec_link": "http://ark.intel.com/products/88095/Intel-Core-i5-5675C-Processor-4M-Cache-up-to-3_60-GHz",
  "title": "Intel Core i5 i5-5675C 4 Core LGA 1150 Desktop Processor",
  "part_number": "CM8065802483201",
  "oem": "Yes",
  "cooling_included": "No",
  "overclockable": "",
  "created_at": "2016-06-24T01:43:53.911Z",
  "type": "cpus",
  "legacy": "No",
  "max_memory": "32GB",
  "bus_speed": "5 GT/s DMI2",
  "data_width": "64-bit",
  "virtualization": "Yes",
  "frequency": "3.1 GHz",
  "max_frequency": "3.6 GHz",
  "title_custom": ""
}