{
  "_id": "zQsvXPuF2p9zCnQkS",
  "mftr": "Intel",
  "platform": "Desktop",
  "family": "Pentium",
  "generation": "",
  "model": "G632",
  "microarch": "Sandy Bridge",
  "core_name": "Sandy Bridge",
  "socket_type": [
    "LGA 1155"
  ],
  "num_cores": 2,
  "num_threads": 2,
  "directx": "",
  "opengl": "",
  "hyper_threading": "No",
  "litho_nm": "32nm",
  "watts": "65W",
  "memory_types": "DDR3 1066",
  "ecc": "",
  "mftr_spec_link": "http://ark.intel.com/products/53485/Intel-Pentium-Processor-G632-3M-Cache-2_70-GHz",
  "overclockable": "Yes",
  "created_at": "2016-06-27T03:39:48.132Z",
  "title": "Intel Pentium G632 2 Core LGA 1155 Desktop Processor",
  "part_number": "CM8062301049304",
  "oem": "Yes",
  "cooling_included": "No",
  "type": "cpus",
  "legacy": "No",
  "max_memory": "32GB",
  "bus_speed": "5 GT/s DMI",
  "data_width": "64-bit",
  "virtualization": "Yes",
  "frequency": "2.7 GHz",
  "max_frequency": "",
  "title_custom": ""
}