{
  "_id": "QpZWuWurR2ZxXtnEM",
  "mftr": "Intel",
  "platform": "Desktop",
  "family": "Core i7",
  "generation": "5th",
  "model": "i7-5775C",
  "microarch": "Broadwell",
  "core_name": "Broadwell",
  "socket_type": [
    "LGA 1150"
  ],
  "num_cores": 4,
  "num_threads": 8,
  "directx": 11.2,
  "opengl": 4.3,
  "hyper_threading": "Yes",
  "litho_nm": "14nm",
  "watts": "65W",
  "memory_types": "DDR3L-1333/1600 @ 1.5V",
  "ecc": "No",
  "mftr_spec_link": "http://ark.intel.com/products/88040/Intel-Core-i7-5775C-Processor-6M-Cache-up-to-3_70-GHz",
  "title": "Intel Core i7 i7-5775C 4 Core LGA 1150 Desktop Processor",
  "part_number": "CM8065802483301",
  "oem": "Yes",
  "cooling_included": "No",
  "overclockable": "",
  "created_at": "2016-06-23T23:30:52.918Z",
  "type": "cpus",
  "legacy": "No",
  "max_memory": "32GB",
  "bus_speed": "5 GT/s DMI2",
  "data_width": "64-bit",
  "virtualization": "Yes",
  "frequency": "3.3 GHz",
  "max_frequency": "3.7 GHz",
  "title_custom": ""
}