{
  "_id": "EofaPWKLs5dxvTzQg",
  "mftr": "Intel",
  "platform": "Desktop",
  "family": "Pentium",
  "generation": "",
  "model": "G3260",
  "microarch": "Haswell",
  "core_name": "Haswell",
  "socket_type": [
    "LGA 1150"
  ],
  "num_cores": 2,
  "num_threads": 2,
  "directx": "11.1/12",
  "opengl": 4.3,
  "hyper_threading": "No",
  "litho_nm": "22nm",
  "watts": "53W",
  "memory_types": "DDR3-1333, DDR3L-1333 @ 1.5V",
  "ecc": "Yes",
  "mftr_spec_link": "http://ark.intel.com/products/87356/Intel-Pentium-Processor-G3260-3M-Cache-3_30-GHz",
  "overclockable": "Yes",
  "created_at": "2016-06-27T03:32:11.503Z",
  "title": "Intel Pentium G3260 2 Core LGA 1150 Desktop Processor",
  "part_number": "CM8064601482506",
  "oem": "Yes",
  "cooling_included": "No",
  "type": "cpus",
  "legacy": "No",
  "max_memory": "32GB",
  "bus_speed": "5 GT/s DMI2",
  "data_width": "64-bit",
  "virtualization": "Yes",
  "frequency": "3.3 GHz",
  "max_frequency": "",
  "title_custom": ""
}