{
  "_id": "zuPgjmvNEXAiC8puy",
  "mftr": "Intel",
  "platform": "Desktop",
  "family": "Celeron",
  "generation": "",
  "model": "G540T",
  "microarch": "Sandy Bridge",
  "core_name": "Sandy Bridge",
  "socket_type": [
    "LGA 1155"
  ],
  "num_cores": 2,
  "num_threads": 2,
  "directx": "",
  "opengl": "",
  "hyper_threading": "No",
  "litho_nm": "32nm",
  "watts": "35W",
  "memory_types": "DDR3 1066",
  "ecc": "",
  "mftr_spec_link": "http://ark.intel.com/products/53417/Intel-Celeron-Processor-G540T-2M-Cache-2_10-GHz",
  "overclockable": "Yes",
  "created_at": "2016-06-27T08:13:40.507Z",
  "title": "Intel Celeron G540T 2 Core LGA 1155 Desktop Processor",
  "part_number": "CM8062301047004",
  "oem": "Yes",
  "cooling_included": "No",
  "type": "cpus",
  "legacy": "No",
  "max_memory": "32GB",
  "bus_speed": "5 GT/s DMI",
  "data_width": "64-bit",
  "virtualization": "Yes",
  "frequency": "2.1 GHz",
  "max_frequency": "",
  "title_custom": ""
}