{
  "_id": "vKDuXZygwtqpCsXbk",
  "mftr": "Intel",
  "platform": "Desktop",
  "family": "Core i5",
  "generation": "4th",
  "model": "i5-4460T",
  "microarch": "Haswell",
  "core_name": "Haswell",
  "socket_type": [
    "LGA 1150"
  ],
  "num_cores": 4,
  "num_threads": 4,
  "directx": "11.2/12",
  "opengl": 4.3,
  "hyper_threading": "No",
  "litho_nm": "22nm",
  "watts": "35W",
  "memory_types": "DDR3-1333/1600, DDR3L-1333/1600 @ 1.5V",
  "ecc": "No",
  "mftr_spec_link": "http://ark.intel.com/products/78927/Intel-Core-i5-4460T-Processor-6M-Cache-up-to-2_70-GHz#@ordering",
  "overclockable": "Yes",
  "created_at": "2016-06-25T20:38:20.647Z",
  "title": "Intel Core i5 i5-4460T 4 Core LGA 1150 Desktop Processor",
  "part_number": "CM8064601561827",
  "oem": "Yes",
  "cooling_included": "No",
  "type": "cpus",
  "legacy": "No",
  "max_memory": "32GB",
  "bus_speed": "5 GT/s DMI2",
  "data_width": "64-bit",
  "virtualization": "Yes",
  "frequency": "1.9 GHz",
  "max_frequency": "2.7 GHz",
  "title_custom": ""
}