{
  "_id": "7FpjcNePHwSN3KQb8",
  "mftr": "Intel",
  "platform": "Desktop",
  "family": "Pentium",
  "generation": "",
  "model": "G640T",
  "microarch": "Sandy Bridge",
  "core_name": "Sandy Bridge",
  "socket_type": [
    "LGA 1155"
  ],
  "num_cores": 2,
  "num_threads": 2,
  "directx": "",
  "opengl": "",
  "hyper_threading": "No",
  "litho_nm": "32nm",
  "watts": "35W",
  "memory_types": "DDR3 1066",
  "ecc": "",
  "mftr_spec_link": "http://ark.intel.com/products/53487/Intel-Pentium-Processor-G640T-3M-Cache-2_40-GHz",
  "overclockable": "Yes",
  "created_at": "2016-06-27T03:40:04.309Z",
  "title": "Intel Pentium G640T 2 Core LGA 1155 Desktop Processor",
  "part_number": "CM8062301002204",
  "oem": "Yes",
  "cooling_included": "No",
  "type": "cpus",
  "legacy": "No",
  "max_memory": "32GB",
  "bus_speed": "5 GT/s DMI",
  "data_width": "64-bit",
  "virtualization": "Yes",
  "frequency": "2.4 GHz",
  "max_frequency": "",
  "title_custom": ""
}