{
  "_id": "z2K3usNRthZCDYzJc",
  "mftr": "Intel",
  "platform": "Desktop",
  "family": "Pentium",
  "generation": "",
  "model": "G2020T",
  "microarch": "Ivy Bridge",
  "core_name": "Ivy Bridge",
  "socket_type": [
    "LGA 1155"
  ],
  "num_cores": 2,
  "num_threads": 2,
  "directx": "",
  "opengl": "",
  "hyper_threading": "No",
  "litho_nm": "22nm",
  "watts": "35W",
  "memory_types": "DDR3 1333",
  "ecc": "Yes",
  "mftr_spec_link": "http://ark.intel.com/products/71069/Intel-Pentium-Processor-G2020T-3M-Cache-2_50-GHz",
  "overclockable": "Yes",
  "created_at": "2016-06-27T03:35:14.570Z",
  "title": "Intel Pentium G2020T 2 Core LGA 1155 Desktop Processor",
  "part_number": "CM8063701444601",
  "oem": "Yes",
  "cooling_included": "No",
  "type": "cpus",
  "legacy": "No",
  "max_memory": "32GB",
  "bus_speed": "5 GT/s DMI",
  "data_width": "64-bit",
  "virtualization": "Yes",
  "frequency": "2.5 GHz",
  "max_frequency": "",
  "title_custom": ""
}