{
  "_id": "ny3ZB3SAcovaX9XNx",
  "mftr": "Intel",
  "platform": "Desktop",
  "family": "Celeron",
  "generation": "",
  "model": "G550T",
  "microarch": "Sandy Bridge",
  "core_name": "Sandy Bridge",
  "socket_type": [
    "LGA 1155"
  ],
  "num_cores": 2,
  "num_threads": 2,
  "directx": "",
  "opengl": "",
  "hyper_threading": "No",
  "litho_nm": "32nm",
  "watts": "35W",
  "memory_types": "DDR3 1066",
  "ecc": "",
  "mftr_spec_link": "http://ark.intel.com/products/53419/Intel-Celeron-Processor-G550T-2M-Cache-2_20-GHz",
  "overclockable": "Yes",
  "created_at": "2016-06-27T08:13:37.464Z",
  "title": "Intel Celeron G550T 2 Core LGA 1155 Desktop Processor",
  "part_number": "CM8062301002309",
  "oem": "Yes",
  "cooling_included": "No",
  "type": "cpus",
  "legacy": "No",
  "max_memory": "32GB",
  "bus_speed": "5 GT/s DMI",
  "data_width": "64-bit",
  "virtualization": "Yes",
  "frequency": "2.2 GHz",
  "max_frequency": "",
  "title_custom": ""
}