{
  "_id": "CLvHqijAsBmiXMBu5",
  "mftr": "Intel",
  "platform": "Desktop",
  "family": "Core i7",
  "generation": "4th",
  "model": "i7-4790",
  "microarch": "Haswell",
  "core_name": "Haswell",
  "socket_type": [
    "LGA 1150"
  ],
  "num_cores": 4,
  "num_threads": 8,
  "directx": "11.2/12",
  "opengl": 4.3,
  "hyper_threading": "Yes",
  "litho_nm": "22nm",
  "watts": "84W",
  "memory_types": "DDR3-1333/1600, DDR3L-1333/1600 @ 1.5V",
  "ecc": "No",
  "mftr_spec_link": "http://ark.intel.com/products/80806/Intel-Core-i7-4790-Processor-8M-Cache-up-to-4_00-GHz",
  "overclockable": "Yes",
  "created_at": "2016-06-25T10:30:02.913Z",
  "title": "Intel Core i7 i7-4790 4 Core LGA 1150 Desktop Processor",
  "part_number": "CM8064601560113",
  "oem": "Yes",
  "cooling_included": "No",
  "type": "cpus",
  "legacy": "No",
  "max_memory": "32GB",
  "bus_speed": "5 GT/s DMI2",
  "data_width": "64-bit",
  "virtualization": "Yes",
  "frequency": "3.6 GHz",
  "max_frequency": "4 GHz",
  "title_custom": ""
}