{
  "_id": "LEWXXiv9DqQnMMFLx",
  "mftr": "Intel",
  "platform": "Desktop",
  "family": "Core i7",
  "generation": "2nd",
  "model": "i7-2600",
  "microarch": "Sandy Bridge",
  "core_name": "Sandy Bridge",
  "socket_type": [
    "LGA 1155"
  ],
  "num_cores": 4,
  "num_threads": 8,
  "directx": "",
  "opengl": "",
  "hyper_threading": "Yes",
  "litho_nm": "32nm",
  "watts": "95W",
  "memory_types": "DDR3 1066/1333",
  "ecc": "No",
  "mftr_spec_link": "http://ark.intel.com/products/52213/Intel-Core-i7-2600-Processor-8M-Cache-up-to-3_80-GHz",
  "overclockable": "Yes",
  "created_at": "2016-06-26T10:04:36.497Z",
  "title": "Intel Core i7 i7-2600 4 Core LGA 1155 Desktop Processor",
  "part_number": "CM8062300834302",
  "oem": "Yes",
  "cooling_included": "No",
  "type": "cpus",
  "legacy": "No",
  "max_memory": "32GB",
  "bus_speed": "5 GT/s DMI",
  "data_width": "64-bit",
  "virtualization": "Yes",
  "frequency": "3.4 GHz",
  "max_frequency": "3.8 GHz",
  "title_custom": ""
}