{
  "_id": "tL2SqcjmK3Wuau28u",
  "mftr": "Intel",
  "platform": "Desktop",
  "family": "Legacy Pentium",
  "generation": "",
  "model": "G6951",
  "microarch": "Clarkdale",
  "core_name": "Clarkdale",
  "socket_type": [
    "LGA 1156"
  ],
  "num_cores": 2,
  "num_threads": 2,
  "directx": "",
  "opengl": "",
  "hyper_threading": "No",
  "litho_nm": "32nm",
  "watts": "73W",
  "memory_types": "DDR3 1066",
  "ecc": "",
  "mftr_spec_link": "http://ark.intel.com/products/43566/Intel-Pentium-Processor-G6951-3M-Cache-2_80-GHz",
  "overclockable": "Yes",
  "created_at": "2016-06-27T04:39:59.188Z",
  "title": "Intel Legacy Pentium G6951 2 Core LGA 1156 Desktop Processor",
  "part_number": "CM80616004593AF",
  "oem": "Yes",
  "cooling_included": "No",
  "type": "cpus",
  "legacy": "Yes",
  "max_memory": "16GB",
  "bus_speed": "2.5 GT/s DMI",
  "data_width": "64-bit",
  "virtualization": "Yes",
  "frequency": "2.8 GHz",
  "max_frequency": "",
  "title_custom": ""
}