{
  "_id": "AcBJ4L86tauduwcBa",
  "mftr": "Intel",
  "platform": "Desktop",
  "family": "Core i7",
  "generation": "6th",
  "model": "i7-6700K",
  "microarch": "Skylake",
  "core_name": "Skylake",
  "socket_type": [
    "LGA 1151"
  ],
  "num_cores": 4,
  "num_threads": 8,
  "directx": 12,
  "opengl": 4.4,
  "hyper_threading": "Yes",
  "litho_nm": "14nm",
  "watts": "91W",
  "memory_types": "DDR4-1866/2133, DDR3L-1333/1600 @ 1.35V",
  "ecc": "No",
  "mftr_spec_link": "http://ark.intel.com/products/88195/Intel-Core-i7-6700K-Processor-8M-Cache-up-to-4_20-GHz",
  "title": "Intel Core i7 i7-6700K 4 Core LGA 1151 Desktop Processor",
  "part_number": "CM8066201919901",
  "oem": "Yes",
  "cooling_included": "No",
  "overclockable": "Yes",
  "created_at": "2016-06-23T02:29:00.083Z",
  "type": "cpus",
  "legacy": "No",
  "max_memory": "64GB",
  "bus_speed": "8 GT/s DMI3",
  "data_width": "64-bit",
  "virtualization": "Yes",
  "frequency": "4 GHz",
  "max_frequency": "4.2 GHz",
  "title_custom": ""
}