{
  "_id": "a9LnKp6Hsn2CivBKz",
  "mftr": "Intel",
  "platform": "Desktop",
  "family": "Atom",
  "generation": "",
  "model": "D2500",
  "microarch": "Cedarview",
  "core_name": "Cedarview",
  "socket_type": [
    "FCBGA559"
  ],
  "num_cores": 2,
  "num_threads": 2,
  "directx": "",
  "opengl": "",
  "hyper_threading": "No",
  "litho_nm": "32nm",
  "watts": "10W",
  "memory_types": "DDR3 800/1066 ",
  "ecc": "No",
  "mftr_spec_link": "http://ark.intel.com/products/59682/Intel-Atom-Processor-D2500-1M-Cache-1_86-GHz",
  "overclockable": "Yes",
  "created_at": "2016-06-26T23:33:26.149Z",
  "title": "Intel Atom D2500 2 Core FCBGA559 Desktop Processor",
  "part_number": "DF8064101055400",
  "oem": "Yes",
  "cooling_included": "No",
  "type": "cpus",
  "legacy": "No",
  "max_memory": "4GB",
  "bus_speed": "2.5 GT/s DMI",
  "data_width": "64-bit",
  "virtualization": "No",
  "frequency": "1.86 GHz",
  "max_frequency": "",
  "title_custom": ""
}