{
  "_id": "coyuwCMX4KG83PZ4g",
  "mftr": "Intel",
  "platform": "Desktop",
  "family": "Legacy Core 2",
  "generation": "",
  "model": "QX9770",
  "microarch": "Yorkfield",
  "core_name": "Yorkfield",
  "socket_type": [
    "LGA 775"
  ],
  "num_cores": 4,
  "num_threads": "",
  "directx": "",
  "opengl": "",
  "hyper_threading": "No",
  "litho_nm": "45nm",
  "watts": "136W",
  "memory_types": "",
  "ecc": "",
  "mftr_spec_link": "http://ark.intel.com/products/34444/Intel-Core2-Extreme-Processor-QX9770-12M-Cache-3_20-GHz-1600-MHz-FSB",
  "overclockable": "Yes",
  "created_at": "2016-06-27T21:34:10.828Z",
  "title": "Intel Legacy Core 2 QX9770 4 Core LGA 775 Desktop Processor",
  "part_number": "EU80569XL088NL",
  "oem": "Yes",
  "cooling_included": "No",
  "type": "cpus",
  "legacy": "Yes",
  "max_memory": "",
  "bus_speed": "1600 MHz",
  "data_width": "64-bit",
  "virtualization": "Yes",
  "frequency": "3.2 GHz",
  "max_frequency": "",
  "title_custom": ""
}