{
  "_id": "mqDyWt68ic4MhBKHD",
  "mftr": "Intel",
  "platform": "Desktop",
  "family": "Celeron",
  "generation": "",
  "model": "J1900",
  "microarch": "Bay Trail",
  "core_name": "Bay Trail",
  "socket_type": [
    "FCBGA1170"
  ],
  "num_cores": 4,
  "num_threads": 4,
  "directx": "",
  "opengl": "",
  "hyper_threading": "No",
  "litho_nm": "22nm",
  "watts": "10W",
  "memory_types": "DDR3L 1333",
  "ecc": "No",
  "mftr_spec_link": "http://ark.intel.com/products/78867/Intel-Celeron-Processor-J1900-2M-Cache-up-to-2_42-GHz",
  "overclockable": "Yes",
  "created_at": "2016-06-27T08:11:58.703Z",
  "title": "Intel Celeron J1900 4 Core FCBGA1170 Desktop Processor",
  "part_number": "FH8065301615009",
  "oem": "Yes",
  "cooling_included": "No",
  "type": "cpus",
  "legacy": "No",
  "max_memory": "8GB",
  "bus_speed": "",
  "data_width": "64-bit",
  "virtualization": "Yes",
  "frequency": "2 GHz",
  "max_frequency": "",
  "title_custom": ""
}