{
  "_id": "C6bvibTxycYF67nLP",
  "mftr": "Intel",
  "platform": "Desktop",
  "family": "Core i5",
  "generation": "5th",
  "model": "i5-5575R",
  "microarch": "Broadwell",
  "core_name": "Broadwell",
  "socket_type": [
    "FCBGA1364"
  ],
  "num_cores": 4,
  "num_threads": 4,
  "directx": 11.2,
  "opengl": 4.3,
  "hyper_threading": "",
  "litho_nm": "14nm",
  "watts": "65W",
  "memory_types": "DDR3L-1333/1600/1866 @ 1.5V",
  "ecc": "No",
  "mftr_spec_link": "http://ark.intel.com/products/87714/Intel-Core-i5-5575R-Processor-4M-Cache-up-to-3_30-GHz",
  "title": "Intel Core i5 i5-5575R 4 Core FCBGA1364 Desktop Processor",
  "part_number": "FH8065802483402",
  "oem": "Yes",
  "cooling_included": "No",
  "overclockable": "",
  "created_at": "2016-06-24T01:45:51.358Z",
  "type": "cpus",
  "legacy": "No",
  "max_memory": "32GB",
  "bus_speed": "5 GT/s DMI2",
  "data_width": "64-bit",
  "virtualization": "Yes",
  "frequency": "2.8 GHz",
  "max_frequency": "3.3 GHz",
  "title_custom": ""
}