{
  "_id": "apwoMEH7GGNxDLBN8",
  "mftr": "Intel",
  "platform": "Desktop",
  "family": "Legacy Celeron",
  "generation": "",
  "model": "",
  "microarch": "Mendocino",
  "core_name": "Mendocino",
  "socket_type": [
    "Socket 370",
    "SEPP242"
  ],
  "num_cores": 1,
  "num_threads": "",
  "directx": "",
  "opengl": "",
  "hyper_threading": "No",
  "litho_nm": "250nm",
  "watts": "21.7W",
  "memory_types": "",
  "ecc": "No",
  "mftr_spec_link": "http://ark.intel.com/products/27185/Intel-Celeron-Processor-366-MHz-128K-Cache-66-MHz-FSB",
  "overclockable": "Yes",
  "created_at": "2016-06-27T21:31:41.621Z",
  "title": "Intel Legacy Celeron 1 Core Socket 370, SEPP242 Desktop Processor",
  "part_number": "FV80524RX366128",
  "oem": "Yes",
  "cooling_included": "No",
  "type": "cpus",
  "legacy": "Yes",
  "max_memory": "",
  "bus_speed": "66 MHz",
  "data_width": "32-bit",
  "virtualization": "No",
  "frequency": "366 MHz",
  "max_frequency": "",
  "title_custom": ""
}