{
  "_id": "quJUEa71C67DXHuvT",
  "mftr": "AMD",
  "generation": "",
  "platform": "Desktop",
  "family": "Phenom II X3",
  "model": "705e",
  "microarch": "K10",
  "core_name": "Heka",
  "socket_type": [
    "Socket AM2+",
    "Socket AM3"
  ],
  "num_cores": 3,
  "num_threads": 3,
  "litho_nm": "45nm",
  "watts": "65W",
  "memory_types": "",
  "ecc": "",
  "mftr_spec_link": "",
  "overclockable": "",
  "created_at": "2016-08-11T01:20:11.517Z",
  "title": "Phenom II X3 705e 3 Core Socket AM2+, Socket AM3 Desktop Processor",
  "part_number": "HD705EOCGIBOX",
  "oem": "No",
  "type": "cpus",
  "legacy": "No",
  "cooling_included": "Yes",
  "max_memory": "",
  "bus_speed": "",
  "data_width": "64-bit",
  "virtualization": "",
  "frequency": "2.5 GHz",
  "max_frequency": "",
  "title_custom": ""
}