{
  "_id": "xRrQZws7PhKBVzOkR",
  "mftr": "AMD",
  "generation": "",
  "platform": "Desktop",
  "family": "Phenom X3",
  "model": "8450e",
  "microarch": "K10",
  "core_name": "Toliman",
  "socket_type": [
    "Socket AM2",
    "Socket AM2+"
  ],
  "num_cores": 3,
  "num_threads": 3,
  "litho_nm": "65nm",
  "watts": "65W",
  "memory_types": "",
  "ecc": "",
  "mftr_spec_link": "",
  "overclockable": "",
  "created_at": "2016-08-10T21:59:41.681Z",
  "title": "Phenom X3 8450e 3 Core Socket AM2, Socket AM2+ Desktop Processor",
  "part_number": "HD8450ODGHBOX",
  "oem": "No",
  "type": "cpus",
  "legacy": "No",
  "cooling_included": "Yes",
  "max_memory": "",
  "bus_speed": "",
  "data_width": "64-bit",
  "virtualization": "",
  "frequency": "2.1 GHz",
  "max_frequency": "",
  "title_custom": ""
}