{
  "_id": "GUUAMO5eUPSnFrG9h",
  "mftr": "AMD",
  "generation": "",
  "platform": "Desktop",
  "family": "Phenom X3",
  "model": "8850B",
  "microarch": "K10",
  "core_name": "Toliman",
  "socket_type": [
    "Socket AM2",
    "Socket AM2+"
  ],
  "num_cores": 3,
  "num_threads": 3,
  "litho_nm": "65nm",
  "watts": "95W",
  "memory_types": "",
  "ecc": "",
  "mftr_spec_link": "",
  "overclockable": "",
  "created_at": "2016-07-15T23:27:39.456Z",
  "title": "Phenom X3 8850B 3 Core Socket AM2, Socket AM2+ Desktop Processor",
  "part_number": "HD885BWCJ3BGH",
  "oem": "Yes",
  "type": "cpus",
  "legacy": "No",
  "cooling_included": "No",
  "max_memory": "",
  "bus_speed": "",
  "data_width": "64-bit",
  "virtualization": "",
  "frequency": "2.5 GHz",
  "max_frequency": "",
  "title_custom": ""
}