{
  "_id": "WnzKfEVyIr0RBlgIU",
  "mftr": "AMD",
  "generation": "",
  "platform": "Desktop",
  "family": "Phenom II X4",
  "model": "905e",
  "microarch": "K10",
  "core_name": "Deneb",
  "socket_type": [
    "Socket AM2+",
    "Socket AM3"
  ],
  "num_cores": 4,
  "num_threads": 4,
  "litho_nm": "45nm",
  "watts": "65W",
  "memory_types": "",
  "ecc": "",
  "mftr_spec_link": "",
  "overclockable": "",
  "created_at": "2016-08-11T00:12:48.854Z",
  "title": "Phenom II X4 905e 4 Core Socket AM2+, Socket AM3 Desktop Processor",
  "part_number": "HD905EOCK4DGM",
  "oem": "Yes",
  "type": "cpus",
  "legacy": "No",
  "cooling_included": "No",
  "max_memory": "",
  "bus_speed": "",
  "data_width": "64-bit",
  "virtualization": "",
  "frequency": "2.5 GHz",
  "max_frequency": "",
  "title_custom": ""
}