{
  "_id": "gfLu7d3MzC5FZiwou",
  "mftr": "AMD",
  "generation": "",
  "platform": "Desktop",
  "family": "Phenom X4",
  "model": "9950",
  "microarch": "K10",
  "core_name": "Agena",
  "socket_type": [
    "Socket AM2",
    "Socket AM2+"
  ],
  "num_cores": 4,
  "num_threads": 4,
  "litho_nm": "65nm",
  "watts": "125W",
  "memory_types": "",
  "ecc": "",
  "mftr_spec_link": "",
  "overclockable": "Yes",
  "created_at": "2016-08-11T02:17:05.981Z",
  "title": "Phenom X4 9950 4 Core Socket AM2, Socket AM2+ Desktop Processor",
  "part_number": "HD995ZXAGHBOX",
  "oem": "No",
  "type": "cpus",
  "legacy": "No",
  "cooling_included": "Yes",
  "max_memory": "",
  "bus_speed": "",
  "data_width": "64-bit",
  "virtualization": "",
  "frequency": "2.6 GHz",
  "max_frequency": "",
  "title_custom": ""
}