{
  "_id": "dv45UPdpKOAZfgoVt",
  "mftr": "AMD",
  "generation": "",
  "platform": "Desktop",
  "family": "Phenom II X2",
  "model": "511",
  "microarch": "K10",
  "core_name": "Regor",
  "socket_type": [
    "Socket AM2+",
    "Socket AM3"
  ],
  "num_cores": 2,
  "num_threads": 2,
  "litho_nm": "45nm",
  "watts": "65W",
  "memory_types": "",
  "ecc": "",
  "mftr_spec_link": "",
  "overclockable": "",
  "created_at": "2016-08-11T02:18:39.685Z",
  "title": "Phenom II X2 511 2 Core Socket AM2+, Socket AM3 Desktop Processor",
  "part_number": "HDX511OCK23GM",
  "oem": "Yes",
  "type": "cpus",
  "legacy": "No",
  "cooling_included": "No",
  "max_memory": "",
  "bus_speed": "",
  "data_width": "64-bit",
  "virtualization": "",
  "frequency": "3.4 GHz",
  "max_frequency": "",
  "title_custom": ""
}