{
  "_id": "lMAAw61P5f3vYNsws",
  "mftr": "AMD",
  "generation": "",
  "platform": "Desktop",
  "family": "Phenom II X4",
  "model": "840",
  "microarch": "K10",
  "core_name": "Propus",
  "socket_type": [
    "Socket AM2+",
    "Socket AM3"
  ],
  "num_cores": 4,
  "num_threads": 4,
  "litho_nm": "45nm",
  "watts": "95W",
  "memory_types": "",
  "ecc": "",
  "mftr_spec_link": "",
  "overclockable": "",
  "created_at": "2016-08-11T01:01:09.653Z",
  "title": "Phenom II X4 840 4 Core Socket AM2+, Socket AM3 Desktop Processor",
  "part_number": "HDX840WFGMBOX",
  "oem": "No",
  "type": "cpus",
  "legacy": "No",
  "cooling_included": "Yes",
  "max_memory": "",
  "bus_speed": "",
  "data_width": "64-bit",
  "virtualization": "",
  "frequency": "3.2 GHz",
  "max_frequency": "",
  "title_custom": ""
}