{
  "_id": "YDhdhKf7S4wPNYvcw",
  "mftr": "AMD",
  "generation": "",
  "platform": "Desktop",
  "family": "Phenom II X4",
  "model": "920",
  "microarch": "K10",
  "core_name": "Deneb",
  "socket_type": [
    "Socket AM2",
    "Socket AM2+"
  ],
  "num_cores": 4,
  "num_threads": 4,
  "litho_nm": "45nm",
  "watts": "125W",
  "memory_types": "",
  "ecc": "",
  "mftr_spec_link": "",
  "overclockable": "",
  "created_at": "2016-08-11T02:19:10.775Z",
  "title": "Phenom II X4 920 4 Core Socket AM2, Socket AM2+ Desktop Processor",
  "part_number": "HDX920XCGIBOX",
  "oem": "No",
  "type": "cpus",
  "legacy": "No",
  "cooling_included": "Yes",
  "max_memory": "",
  "bus_speed": "",
  "data_width": "64-bit",
  "virtualization": "",
  "frequency": "2.8 GHz",
  "max_frequency": "",
  "title_custom": ""
}