{
  "_id": "f0KTT2etkhYLI8cDg",
  "mftr": "AMD",
  "generation": "",
  "platform": "Desktop",
  "family": "Phenom II X2",
  "model": "560",
  "microarch": "K10",
  "core_name": "Callisto",
  "socket_type": [
    "Socket AM2+",
    "Socket AM3"
  ],
  "num_cores": 2,
  "num_threads": 2,
  "litho_nm": "45nm",
  "watts": "80W",
  "memory_types": "",
  "ecc": "",
  "mftr_spec_link": "",
  "overclockable": "Yes",
  "created_at": "2016-08-11T02:06:52.413Z",
  "title": "Phenom II X2 560 2 Core Socket AM2+, Socket AM3 Desktop Processor",
  "part_number": "HDZ560WFGMBOX",
  "oem": "No",
  "type": "cpus",
  "legacy": "No",
  "cooling_included": "Yes",
  "max_memory": "",
  "bus_speed": "",
  "data_width": "64-bit",
  "virtualization": "",
  "frequency": "3.3 GHz",
  "max_frequency": "",
  "title_custom": ""
}