{
  "_id": "XVJDel5HdRsocs5Tj",
  "mftr": "AMD",
  "generation": "",
  "platform": "Desktop",
  "family": "Phenom II X4",
  "model": "955",
  "microarch": "K10",
  "core_name": "Deneb",
  "socket_type": [
    "Socket AM2+",
    "Socket AM3"
  ],
  "num_cores": 4,
  "num_threads": 4,
  "litho_nm": "45nm",
  "watts": "125W",
  "memory_types": "",
  "ecc": "",
  "mftr_spec_link": "",
  "overclockable": "Yes",
  "created_at": "2016-08-11T00:16:19.051Z",
  "title": "Phenom II X4 955 4 Core Socket AM2+, Socket AM3 Desktop Processor",
  "part_number": "HDZ955FBGIBOX",
  "oem": "No",
  "type": "cpus",
  "legacy": "No",
  "cooling_included": "Yes",
  "max_memory": "",
  "bus_speed": "",
  "data_width": "64-bit",
  "virtualization": "",
  "frequency": "3.2 GHz",
  "max_frequency": "",
  "title_custom": ""
}