{
  "_id": "WuJTTqHc8LcToHt4d",
  "mftr": "Intel",
  "platform": "Desktop",
  "family": "Legacy Pentium",
  "generation": "",
  "model": "805",
  "microarch": "Smithfield",
  "core_name": "Smithfield",
  "socket_type": [
    "LGA 775"
  ],
  "num_cores": 2,
  "num_threads": "",
  "directx": "",
  "opengl": "",
  "hyper_threading": "No",
  "litho_nm": "90nm",
  "watts": "95W",
  "memory_types": "",
  "ecc": "No",
  "mftr_spec_link": "http://ark.intel.com/products/27511/Intel-Pentium-D-Processor-805-2M-Cache-2_66-GHz-533-MHz-FSB",
  "overclockable": "Yes",
  "created_at": "2016-06-27T04:31:19.279Z",
  "title": "Intel Legacy Pentium 805 2 Core LGA 775 Desktop Processor",
  "part_number": "HH80551PE0672MN",
  "oem": "Yes",
  "cooling_included": "No",
  "type": "cpus",
  "legacy": "Yes",
  "max_memory": "",
  "bus_speed": "533 MHz",
  "data_width": "64-bit",
  "virtualization": "No",
  "frequency": "2.66 GHz",
  "max_frequency": "",
  "title_custom": ""
}