{
  "_id": "Lp7WCFzs5wcvso694",
  "mftr": "Intel",
  "platform": "Desktop",
  "family": "Legacy Celeron",
  "generation": "",
  "model": "352",
  "microarch": "Cedarmill",
  "core_name": "Cedarmill",
  "socket_type": [
    "LGA 775"
  ],
  "num_cores": 1,
  "num_threads": "",
  "directx": "",
  "opengl": "",
  "hyper_threading": "No",
  "litho_nm": "65nm",
  "watts": "86W",
  "memory_types": "",
  "ecc": "No",
  "mftr_spec_link": "http://ark.intel.com/products/27129/Intel-Celeron-D-Processor-352-512K-Cache-3_20-GHz-533-MHz-FSB",
  "overclockable": "Yes",
  "created_at": "2016-06-27T21:30:31.572Z",
  "title": "Intel Legacy Celeron 352 1 Core LGA 775 Desktop Processor",
  "part_number": "HH80552RE088512",
  "oem": "Yes",
  "cooling_included": "No",
  "type": "cpus",
  "legacy": "Yes",
  "max_memory": "",
  "bus_speed": "533 MHz",
  "data_width": "64-bit",
  "virtualization": "No",
  "frequency": "3.2 GHz",
  "max_frequency": "",
  "title_custom": ""
}