{
  "_id": "XzRbHXMQ4HbfWWJWD",
  "mftr": "Intel",
  "platform": "Desktop",
  "family": "Legacy Pentium",
  "generation": "",
  "model": "661",
  "microarch": "Cedarmill",
  "core_name": "Cedarmill",
  "socket_type": [
    "LGA 775"
  ],
  "num_cores": 1,
  "num_threads": "",
  "directx": "",
  "opengl": "",
  "hyper_threading": "Yes",
  "litho_nm": "65nm",
  "watts": "86W",
  "memory_types": "",
  "ecc": "No",
  "mftr_spec_link": "http://ark.intel.com/products/27485/Intel-Pentium-4-Processor-661-supporting-HT-Technology-2M-Cache-3_60-GHz-800-MHz-FSB",
  "overclockable": "Yes",
  "created_at": "2016-06-27T04:03:15.345Z",
  "title": "Intel Legacy Pentium 661 1 Core LGA 775 Desktop Processor",
  "part_number": "HH80552PG1042M",
  "oem": "Yes",
  "cooling_included": "No",
  "type": "cpus",
  "legacy": "Yes",
  "max_memory": "",
  "bus_speed": "800 MHz",
  "data_width": "64-bit",
  "virtualization": "No",
  "frequency": "3.6 GHz",
  "max_frequency": "",
  "title_custom": ""
}