{
  "_id": "MyLjjsaREHzeyHdP4",
  "mftr": "Intel",
  "platform": "Desktop",
  "family": "Celeron",
  "generation": "",
  "model": "E1400",
  "microarch": "Conroe",
  "core_name": "Conroe",
  "socket_type": [
    "LGA 775"
  ],
  "num_cores": 2,
  "num_threads": "",
  "directx": "",
  "opengl": "",
  "hyper_threading": "No",
  "litho_nm": "65nm",
  "watts": "65W",
  "memory_types": "",
  "ecc": "",
  "mftr_spec_link": "http://ark.intel.com/products/35101/Intel-Celeron-Processor-E1400-512K-Cache-2_00-GHz-800-MHz-FSB",
  "overclockable": "Yes",
  "created_at": "2016-06-27T08:12:17.035Z",
  "title": "Intel Celeron E1400 2 Core LGA 775 Desktop Processor",
  "part_number": "HH80557PG041D",
  "oem": "Yes",
  "cooling_included": "No",
  "type": "cpus",
  "legacy": "No",
  "max_memory": "",
  "bus_speed": "800 MHz",
  "data_width": "64-bit",
  "virtualization": "No",
  "frequency": "2 GHz",
  "max_frequency": "",
  "title_custom": ""
}