{
  "_id": "2MPhKbrqPJuQLe2nG",
  "mftr": "Intel",
  "platform": "Desktop",
  "family": "Legacy Pentium",
  "generation": "",
  "model": "960",
  "microarch": "Presler",
  "core_name": "Presler",
  "socket_type": [
    "LGA 775"
  ],
  "num_cores": 2,
  "num_threads": "",
  "directx": "",
  "opengl": "",
  "hyper_threading": "No",
  "litho_nm": "65nm",
  "watts": "130W",
  "memory_types": "",
  "ecc": "No",
  "mftr_spec_link": "http://ark.intel.com/products/27522/Intel-Pentium-D-Processor-960-4M-Cache-3_60-GHz-800-MHz-FSB",
  "overclockable": "Yes",
  "created_at": "2016-06-27T04:31:39.460Z",
  "title": "Intel Legacy Pentium 960 2 Core LGA 775 Desktop Processor",
  "part_number": "HH80553PG1044M",
  "oem": "Yes",
  "cooling_included": "No",
  "type": "cpus",
  "legacy": "Yes",
  "max_memory": "",
  "bus_speed": "800 MHz",
  "data_width": "64-bit",
  "virtualization": "Yes",
  "frequency": "3.6 GHz",
  "max_frequency": "",
  "title_custom": ""
}