{
  "_id": "EwdWyiQp4FP7sk5Po",
  "mftr": "Intel",
  "platform": "Desktop",
  "family": "Legacy Celeron",
  "generation": "",
  "model": "450",
  "microarch": "Conroe",
  "core_name": "Conroe",
  "socket_type": [
    "LGA 775"
  ],
  "num_cores": 1,
  "num_threads": "",
  "directx": "",
  "opengl": "",
  "hyper_threading": "No",
  "litho_nm": "65nm",
  "watts": "35W",
  "memory_types": "",
  "ecc": "",
  "mftr_spec_link": "http://ark.intel.com/products/35239/Intel-Celeron-Processor-450-512K-Cache-2_20-GHz-800-MHz-FSB",
  "overclockable": "Yes",
  "created_at": "2016-06-27T21:30:33.642Z",
  "title": "Intel Legacy Celeron 450 1 Core LGA 775 Desktop Processor",
  "part_number": "HH80557RG049512",
  "oem": "Yes",
  "cooling_included": "No",
  "type": "cpus",
  "legacy": "Yes",
  "max_memory": "",
  "bus_speed": "800 MHz",
  "data_width": "64-bit",
  "virtualization": "No",
  "frequency": "2.2 GHz",
  "max_frequency": "",
  "title_custom": ""
}