{
  "_id": "whJZgR5aPuFZc5R6A",
  "mftr": "Intel",
  "platform": "Desktop",
  "family": "Legacy Pentium",
  "generation": "",
  "model": "519K",
  "microarch": "Prescott",
  "core_name": "Prescott",
  "socket_type": [
    "LGA 775"
  ],
  "num_cores": 1,
  "num_threads": "",
  "directx": "",
  "opengl": "",
  "hyper_threading": "",
  "litho_nm": "90nm",
  "watts": "84W",
  "memory_types": "",
  "ecc": "",
  "mftr_spec_link": "http://ark.intel.com/products/27458/Intel-Pentium-4-Processor-519K-1M-Cache-3_06-GHz-533-MHz-FSB",
  "overclockable": "Yes",
  "created_at": "2016-06-27T03:58:08.956Z",
  "title": "Intel Legacy Pentium 519K 1 Core LGA 775 Desktop Processor",
  "part_number": "JM80547PE0831MN",
  "oem": "Yes",
  "cooling_included": "No",
  "type": "cpus",
  "legacy": "Yes",
  "max_memory": "",
  "bus_speed": "533 MHz",
  "data_width": "64-bit",
  "virtualization": "No",
  "frequency": "3.06 GHz",
  "max_frequency": "",
  "title_custom": ""
}