{
  "_id": "mmKzS4nW3jgwarwXr",
  "mftr": "Intel",
  "platform": "Desktop",
  "family": "Legacy Pentium",
  "generation": "",
  "model": "640",
  "microarch": "Prescott",
  "core_name": "Prescott",
  "socket_type": [
    "LGA 775"
  ],
  "num_cores": 1,
  "num_threads": "",
  "directx": "",
  "opengl": "",
  "hyper_threading": "Yes",
  "litho_nm": "90nm",
  "watts": "84W",
  "memory_types": "",
  "ecc": "",
  "mftr_spec_link": "http://ark.intel.com/products/27480/Intel-Pentium-4-Processor-640-supporting-HT-Technology-2M-Cache-3_20-GHz-800-MHz-FSB",
  "overclockable": "Yes",
  "created_at": "2016-06-27T04:02:16.426Z",
  "title": "Intel Legacy Pentium 640 1 Core LGA 775 Desktop Processor",
  "part_number": "JM80547PH0882M",
  "oem": "Yes",
  "cooling_included": "No",
  "type": "cpus",
  "legacy": "Yes",
  "max_memory": "",
  "bus_speed": "800 MHz",
  "data_width": "64-bit",
  "virtualization": "No",
  "frequency": "3.2 GHz",
  "max_frequency": "",
  "title_custom": ""
}