{
  "_id": "5Ys7QfJSLqbFFkihL",
  "mftr": "Intel",
  "platform": "Desktop",
  "family": "Core i7",
  "generation": "6th",
  "model": "i7-6785R",
  "microarch": "Skylake",
  "core_name": "Skylake",
  "socket_type": [
    "BGA1440"
  ],
  "num_cores": 4,
  "num_threads": 8,
  "directx": 12,
  "opengl": 4.4,
  "hyper_threading": "Yes",
  "litho_nm": "14nm",
  "watts": "65W",
  "memory_types": "DDR4-1866/2133, DDR3L-1333/1600 @ 1.35V",
  "ecc": "No",
  "mftr_spec_link": "http://ark.intel.com/products/93339/Intel-Core-i7-6785R-Processor-8M-Cache-up-to-3_90-GHz",
  "title": "Intel Core i7 i7-6785R 4 Core BGA1440 Desktop Processor",
  "part_number": "JQ8066201926802",
  "oem": "Yes",
  "cooling_included": "No",
  "overclockable": "",
  "created_at": "2016-06-23T04:53:04.170Z",
  "type": "cpus",
  "legacy": "No",
  "max_memory": "64GB",
  "bus_speed": "8 GT/s DMI3",
  "data_width": "64-bit",
  "virtualization": "Yes",
  "frequency": "3.3 GHz",
  "max_frequency": "3.9 GHz",
  "title_custom": ""
}