{
  "_id": "bm6zpLDFKPtxuGm3g",
  "mftr": "Intel",
  "platform": "Desktop",
  "family": "Legacy Celeron",
  "generation": "",
  "model": "",
  "microarch": "Coppermine",
  "core_name": "Coppermine",
  "socket_type": [
    "H-PBGA495",
    "Socket 370"
  ],
  "num_cores": 1,
  "num_threads": "",
  "directx": "",
  "opengl": "",
  "hyper_threading": "No",
  "litho_nm": "180nm",
  "watts": "23.6W",
  "memory_types": "",
  "ecc": "No",
  "mftr_spec_link": "http://ark.intel.com/products/27195/Intel-Celeron-Processor-733-MHz-128K-Cache-66-MHz-FSB",
  "overclockable": "Yes",
  "created_at": "2016-06-27T21:32:05.551Z",
  "title": "Intel Legacy Celeron 1 Core H-PBGA495, Socket 370 Desktop Processor",
  "part_number": "KC80526RZ733128",
  "oem": "Yes",
  "cooling_included": "No",
  "type": "cpus",
  "legacy": "Yes",
  "max_memory": "",
  "bus_speed": "66 MHz",
  "data_width": "32-bit",
  "virtualization": "No",
  "frequency": "733 MHz",
  "max_frequency": "",
  "title_custom": ""
}