{
  "_id": "9K2THxzEtzT2pj8Mf",
  "mftr": "Intel",
  "platform": "Desktop",
  "family": "Legacy Celeron",
  "generation": "",
  "model": "",
  "microarch": "Coppermine",
  "core_name": "Coppermine",
  "socket_type": [
    "Socket 370"
  ],
  "num_cores": 1,
  "num_threads": "",
  "directx": "",
  "opengl": "",
  "hyper_threading": "No",
  "litho_nm": "180nm",
  "watts": "17.5W",
  "memory_types": "",
  "ecc": "No",
  "mftr_spec_link": "http://ark.intel.com/products/27193/Intel-Celeron-Processor-667-MHz-128K-Cache-66-MHz-FSB",
  "overclockable": "Yes",
  "created_at": "2016-06-27T21:31:59.328Z",
  "title": "Intel Legacy Celeron 1 Core Socket 370 Desktop Processor",
  "part_number": "RB80526RX667128",
  "oem": "Yes",
  "cooling_included": "No",
  "type": "cpus",
  "legacy": "Yes",
  "max_memory": "",
  "bus_speed": "66 MHz",
  "data_width": "32-bit",
  "virtualization": "No",
  "frequency": "667 MHz",
  "max_frequency": "",
  "title_custom": ""
}