{
  "_id": "epgP27RoYAvtR2wNw",
  "mftr": "Intel",
  "platform": "Desktop",
  "family": "Legacy Celeron",
  "generation": "",
  "model": "",
  "microarch": "Northwood",
  "core_name": "Northwood",
  "socket_type": [
    "Socket 478"
  ],
  "num_cores": 1,
  "num_threads": "",
  "directx": "",
  "opengl": "",
  "hyper_threading": "No",
  "litho_nm": "130nm",
  "watts": "63.5W",
  "memory_types": "",
  "ecc": "No",
  "mftr_spec_link": "http://ark.intel.com/products/27172/Intel-Celeron-Processor-1_70-GHz-128K-Cache-400-MHz-FSB",
  "overclockable": "Yes",
  "created_at": "2016-06-27T21:31:01.444Z",
  "title": "Intel Legacy Celeron 1 Core Socket 478 Desktop Processor",
  "part_number": "RK80531RC029128",
  "oem": "Yes",
  "cooling_included": "No",
  "type": "cpus",
  "legacy": "Yes",
  "max_memory": "",
  "bus_speed": "400 MHz",
  "data_width": "32-bit",
  "virtualization": "No",
  "frequency": "1.7 GHz",
  "max_frequency": "",
  "title_custom": ""
}