{
  "_id": "z78BAki6fqcjDhziM",
  "mftr": "Intel",
  "platform": "Desktop",
  "family": "Legacy Pentium",
  "generation": "",
  "model": "",
  "microarch": "Northwood",
  "core_name": "Northwood",
  "socket_type": [
    "Socket 478"
  ],
  "num_cores": 1,
  "num_threads": "",
  "directx": "",
  "opengl": "",
  "hyper_threading": "No",
  "litho_nm": "130nm",
  "watts": "62.6W",
  "memory_types": "",
  "ecc": "",
  "mftr_spec_link": "http://ark.intel.com/products/27442/Intel-Pentium-4-Processor-2_60-GHz-512K-Cache-400-MHz-FSB",
  "overclockable": "Yes",
  "created_at": "2016-06-27T04:07:38.339Z",
  "title": "Intel Legacy Pentium 1 Core Socket 478 Desktop Processor",
  "part_number": "RK80532PC064512",
  "oem": "Yes",
  "cooling_included": "No",
  "type": "cpus",
  "legacy": "Yes",
  "max_memory": "",
  "bus_speed": "400 MHz",
  "data_width": "32-bit",
  "virtualization": "No",
  "frequency": "2.6 GHz",
  "max_frequency": "",
  "title_custom": ""
}