{
  "_id": "AzYFrpPjCm8Q5fCXz",
  "mftr": "Intel",
  "platform": "Desktop",
  "family": "Legacy Pentium",
  "generation": "",
  "model": "530",
  "microarch": "Prescott",
  "core_name": "Prescott",
  "socket_type": [
    "LGA 775",
    "Socket 478"
  ],
  "num_cores": 1,
  "num_threads": "",
  "directx": "",
  "opengl": "",
  "hyper_threading": "Yes",
  "litho_nm": "90nm",
  "watts": "84W",
  "memory_types": "",
  "ecc": "",
  "mftr_spec_link": "http://ark.intel.com/products/27463/Intel-Pentium-4-Processor-530530J-supporting-HT-Technology-1M-Cache-3_00-GHz-800-MHz-FSB",
  "overclockable": "Yes",
  "created_at": "2016-06-27T04:00:42.642Z",
  "title": "Intel Legacy Pentium 530 1 Core LGA 775, Socket 478 Desktop Processor",
  "part_number": "RK80546PG0801M",
  "oem": "Yes",
  "cooling_included": "No",
  "type": "cpus",
  "legacy": "Yes",
  "max_memory": "",
  "bus_speed": "800 MHz",
  "data_width": "32-bit",
  "virtualization": "No",
  "frequency": "3 GHz",
  "max_frequency": "",
  "title_custom": ""
}