{
  "_id": "AWQKghSaAMQPcc7FD",
  "mftr": "Intel",
  "platform": "Desktop",
  "family": "Legacy Celeron",
  "generation": "",
  "model": "",
  "microarch": "Tualatin",
  "core_name": "Tualatin",
  "socket_type": [
    "Socket 370"
  ],
  "num_cores": 1,
  "num_threads": "",
  "directx": "",
  "opengl": "",
  "hyper_threading": "No",
  "litho_nm": "130nm",
  "watts": "33.4W",
  "memory_types": "",
  "ecc": "No",
  "mftr_spec_link": "http://ark.intel.com/products/27169/Intel-Celeron-Processor-1_30-GHz-256K-Cache-100-MHz-FSB",
  "overclockable": "Yes",
  "created_at": "2016-06-27T21:31:00.408Z",
  "title": "Intel Legacy Celeron 1 Core Socket 370 Desktop Processor",
  "part_number": "RK80530RY013256",
  "oem": "Yes",
  "cooling_included": "No",
  "type": "cpus",
  "legacy": "Yes",
  "max_memory": "",
  "bus_speed": "100 MHz",
  "data_width": "32-bit",
  "virtualization": "No",
  "frequency": "1.3 GHz",
  "max_frequency": "",
  "title_custom": ""
}