{
  "_id": "qc9Y8ybXkadaySh8Z",
  "mftr": "Intel",
  "platform": "Desktop",
  "family": "Legacy Pentium",
  "generation": "",
  "model": "",
  "microarch": "Tualatin",
  "core_name": "Tualatin",
  "socket_type": [
    "Socket 370"
  ],
  "num_cores": 1,
  "num_threads": "",
  "directx": "",
  "opengl": "",
  "hyper_threading": "",
  "litho_nm": "130nm",
  "watts": "29.9W",
  "memory_types": "",
  "ecc": "",
  "mftr_spec_link": "http://ark.intel.com/products/27533/Intel-Pentium-III-Processor-1_33-GHz-256K-Cache-133-MHz-FSB",
  "overclockable": "Yes",
  "created_at": "2016-06-27T04:36:36.834Z",
  "title": "Intel Legacy Pentium 1 Core Socket 370 Desktop Processor",
  "part_number": "RK80530PZ014256",
  "oem": "Yes",
  "cooling_included": "No",
  "type": "cpus",
  "legacy": "Yes",
  "max_memory": "",
  "bus_speed": "133 MHz",
  "data_width": "32-bit",
  "virtualization": "No",
  "frequency": "1.33 GHz",
  "max_frequency": "",
  "title_custom": ""
}