"type": "",
"part_number": "",
"title": "",
"asin": "",
"newegg_id": "",
"brand": "",
"model": "",
"series": "",

"": "",
"": "",
"": "",
"": "",
"": "",
"": "",
"": "",
"": "",
"": "",
"": "",
"": "",
"": "",
"": "",
"": "",
"": "",
"": "",
"": "",

"dimensions_imperial": "00.0 x 00.00 x 0.00 inches (LxWxH)",
"dimensions_metric": "000 x 000 x 000 mm (LxWxH)",
"weight_imperial": "",
"weight_metric": "",
"warranty": "",
"sources": {
  "mftr_site": "",
  "mftr_overview": "",
  "mftr_specs": "",
  "mftr_manual": "",
  "mftr_downloads": "",
  "mftr_faq": "",
  "mftr_support": ""
}
