{
  "_id": "58fd5502d1a2ae9b0",
  "type": "motherboards",
  "part_number": "GA-Z170X-Ultra Gaming",
  "title": "GIGABYTE GA-Z170X-Ultra Gaming (rev. 1.0) LGA 1151 Intel Z170",
  "asin": "B01H74VKKK",
  "newegg_id": "13-128-941",
  "platform": "Desktop",
  "other": {
    "promo_line": "",
    "features": []
  },
  "mftr": "GIGABYTE",
  "family": "",
  "model": "GA-Z170X-Ultra Gaming (rev. 1.0)",
  "intel_turbo_boost_2": "",
  "cpu_socket_type": "LGA 1151",
  "cpu_support": "Core™ i7 / Core™ i5 / Core™ i3 / Celeron® Processors",
  "cpu_series": [
    "Core™ i7",
    "Core™ i5",
    "Core™ i3",
    "Celeron®"
  ],
  "cpu_generation": [
    "7th Generation",
    "6th Generation"
  ],
  "max_cpus": 1,
  "chipset": "Intel Z170",
  "video_chipset": [
    ""
  ],
  "video_max_memory": "",
  "multi_gpu_support": [
    "NVIDIA® 2-Way SLI™",
    "NVIDIA® Quad-GPU SLI™",
    "AMD 2-Way AMD CrossFire™",
    "AMD Quad-GPU CrossFireX™"
  ],
  "onboard_video": "Yes",
  "memory_slots": "4 x DIMM 288-pin",
  "memory_standard": "DDR4",
  "memory_speed": [
    "3866",
    "3800",
    "3733",
    "3666",
    "3600",
    "3466",
    "3400",
    "3333",
    "3300",
    "3200",
    "3000",
    "2800",
    "2666",
    "2400",
    "2133"
  ],
  "memory_speed_details": [
    "3866(O.C.)",
    "3800(O.C.)",
    "3733(O.C.)",
    "3666(O.C.)",
    "3600(O.C.)",
    "3466(O.C.)",
    "3400(O.C.)",
    "3333(O.C.)",
    "3300(O.C.)",
    "3200(O.C.)",
    "3000(O.C.)",
    "2800(O.C.)",
    "2666(O.C.)",
    "2400(O.C.)",
    "2133"
  ],
  "memory_ecc": "Yes",
  "memory_buffered": "No",
  "max_memory": "64 GB",
  "memory_channels": "Dual Channel",
  "xmp_support": "Yes",
  "pci_express": [
    "1 x PCIe 3.0 x16 (x16)",
    "1 x PCIe 3.0 x16 (x8)",
    "1 x PCIe 3.0 x16 (x4)",
    "3 x PCIe 3.0 x1"
  ],
  "sata_6gb": [
    "6 x SATA III 6Gb/s"
  ],
  "sata_3gb": [],
  "sata_express": [
    "2 x SATA Express connectors"
  ],
  "sata_i": [],
  "m2": [
    "1 x M.2 (SATA / PCIe x2/x4) M Key"
  ],
  "u2": [
    "1 x U.2"
  ],
  "sata_raid": "0/1/5/10",
  "audio_chipset": "Realtek® ALC892",
  "audio_channels": "2/4/5.1/7.1-channel",
  "audio_details": [
    "High Definition Audio",
    "Support for S/PDIF Out"
  ],
  "lan_chipset": "Intel® GbE LAN chip (10/100/1000 Mbit)",
  "second_lan_chipset": "",
  "lan_speed": "Gigabit Ethernet",
  "wireless_lan": "",
  "rj45": [
    "1 x RJ45 (LAN)"
  ],
  "video_ports": [
    "1 x HDMI",
    "1 x DisplayPort"
  ],
  "usb_3_1": [
    "1 x USB 3.1 Type-C",
    "1 x USB 3.1 Type-A"
  ],
  "usb_3_0": [],
  "usb_1_2": [],
  "usb_ports": [
    "2 x USB 3.1",
    "6 x USB 3.0/2.0",
    "6 x USB 2.0/1.1"
  ],
  "spdif_out": [
    "1 x Optical S/PDIF out"
  ],
  "ps_2": "",
  "mini_card_slots": "",
  "audio": [
    "Realtek® ALC892 codec",
    "High Definition Audio",
    "2/4/5.1/7.1-channel",
    "Support for S/PDIF Out"
  ],
  "audio_ports_details": [],
  "form_factor": "ATX",
  "dimensions_l_w_h_inches": "13.18 x 10.62 x 3.14",
  "power_pins": [
    "1 x 24-pin EATX (Power)",
    "1 x 8-pin EATX 12V (CPU Fan)"
  ],
  "com_ports": "",
  "antenna_connectors": "",
  "in_box": [],
  "weight_lbs": 2.9,
  "internal_io_ports": [
    "1 x 24-pin ATX main power connector",
    "1 x 8-pin ATX 12V power connector",
    "1 x U.2 connector",
    "1 x M.2 Socket 3 connector",
    "2 x SATA Express connectors",
    "6 x SATA 6Gb/s connectors",
    "1 x CPU fan header",
    "1 x water cooling fan/pump header (CPU_OPT_PUMP)",
    "2 x system fan headers",
    "1 x system fan/water cooling pump header (SYS_FAN2_PUMP)",
    "1 x front panel header",
    "1 x front panel audio header",
    "1 x USB 3.0/2.0 header",
    "2 x USB 2.0/1.1 headers",
    "1 x S/PDIF Out header",
    "1 x Trusted Platform Module (TPM) header",
    "1 x Thunderbolt™ add-in card connector",
    "1 x Clear CMOS jumper"
  ],
  "back_panel_connectors": [
    "1 x PS/2 keyboard/mouse port",
    "1 x USB Type-C™ port, with USB 3.1 support",
    "1 x USB 3.1 Type-A port (red)",
    "1 x Mini-DisplayPort In port",
    "1 x Mini-DisplayPort",
    "1 x HDMI port",
    "4 x USB 3.0/2.0 ports",
    "2 x USB 2.0/1.1 ports",
    "1 x RJ-45 port",
    "1 x optical S/PDIF Out connector",
    "5 x audio jacks (Center/Subwoofer Speaker Out, Rear Speaker Out, Line In, Line Out, Mic In)"
  ],
  "features": [],
  "exclusive_features": [
    "Support for APP Center * Available applications in APP Center may vary by motherboard model. Supported functions of each application may also vary depending on motherboard specifications.",
    "3D OSD",
    "@BIOS",
    "AutoGreen",
    "BIOS Setup",
    "Color Temperature",
    "Cloud Station",
    "EasyTune",
    "Easy RAID",
    "Fast Boot",
    "ON/OFF Charge",
    "Platform Power Management",
    "Smart TimeLock",
    "Smart Keyboard",
    "Smart Backup",
    "System Information Viewer",
    "USB Blocker",
    "V-Tuner",
    "Support for Q-Flash",
    "Support for Smart Switch",
    "Support for Xpress Install"
  ],
  "special_features": "",
  "hw_monitoring": [
    "System voltage detection",
    "CPU/System/Chipset temperature detection",
    "CPU/CPU OPT/System fan (pump) speed detection",
    "CPU/System/Chipset overheating warning",
    "CPU/CPU OPT/System fan (pump) fail warning",
    "CPU/CPU OPT/System fan (pump) speed control",
    "* Whether the fan speed control function is supported will depend on the fan (pump) you install."
  ],
  "bios": [
    "2 x 128 Mbit flash",
    "Use of licensed AMI UEFI BIOS",
    "Support for DualBIOS™",
    "PnP 1.0a, DMI 2.7, WfM 2.0, SM BIOS 2.7, ACPI 5.0"
  ],
  "management": "",
  "sources": {
    "mftr_site": "http://www.gigabyte.com/",
    "mftr_overview": "http://www.gigabyte.com/Motherboard/GA-Z170X-Ultra-Gaming-rev-10",
    "mftr_specs": "http://www.gigabyte.com/Motherboard/GA-Z170X-Ultra-Gaming-rev-10#sp",
    "mftr_manual": "http://www.gigabyte.com/Motherboard/GA-Z170X-Ultra-Gaming-rev-10#support-manual",
    "mftr_memory_support": "http://www.gigabyte.com/Motherboard/GA-Z170X-Ultra-Gaming-rev-10#support-doc",
    "mftr_drivers": "http://www.gigabyte.com/Motherboard/GA-Z170X-Ultra-Gaming-rev-10#support-dl",
    "mftr_faq": "http://www.gigabyte.com/Motherboard/GA-Z170X-Ultra-Gaming-rev-10#support-faq",
    "mftr_warranty": "http://www.gigabyte.com/Support/Warranty",
    "cpu_support": "http://www.gigabyte.com/Motherboard/GA-Z170X-Ultra-Gaming-rev-10#support-cpu"
  },
  "legacy": "No",
  "objectID": "58fd5502d1a2ae9b0"
}