{
  "_id": "5908605e8f48f0554",
  "type": "cases",
  "part_number": "CC-9011098-WW",
  "title": "Corsair Crystal Series 570X RGB ATX Mid-Tower Case (CC-9011098-WW)",
  "asin": "B01LE0ZKR2",
  "newegg_id": "N82E16811139087",
  "mftr": "Corsair",
  "form_factor": "Mid-Tower",
  "dimensions_imperial": "18.9 x 20.1 x 9.21 inches (LxWxH)",
  "dimensions_metric": "480 x 512 x 234 mm (LxWxH)",
  "motherboard_support": ["Mini-ITX", "MicroATX", "ATX (Up to 272mm)"],
  "Maximum GPU Length": "370mm",
  "Maximum CPU Cooler Height": "170mm",
  "Maximum PSU Length": "225mm",
  "Expansion Slots": "7",
  "material": "Steel / Tempered Glass",
  "power_supply": "ATX (not included)",
  "external_connections": [
    "2 x USB 3.0",
    "1 x Headphone Port",
    "1 x Microphone Port"
  ],
  "fan_mount_locations": [
    "Front: 3 x 120mm or 2 x 140mm",
    "Top: 2 x 120/140mm ",
    "Rear: 1 x 120mm"
  ],
  "fans_included": [
    "Front: 3 x 120mm RGB LED"
  ],
  "LED": "RGB",
  "radiator_mount_locations": [
    "Front: 120/240/280/360mm",
    "Top: 240mm",
    "Rear: 120mm"
  ],
  "compatible_corsair_liquid_coolers": [
    "H55",
    "H60",
    "H75",
    "H80i",
    "H90",
    "H100i",
    "H105",
    "H110"
  ],
  "color": "Black",
  "with_power_supply": "No",
  "Side Panel Window": "Yes",
  "expansion_bays": [
    "0 x External 5.25 Drive Bays",
    "0 x External 3.5 Drive Bays",
    "2 x Internal 3.5 Drive Bays",
    "2 x Internal 2.5 Drive Bays",
    "0 x Expansion Slots"
  ],
  "Front Panel Ports": "2 x USB 3.0 / 1 x Headphone Port / 1 x Microphone Port",
  "features": [
    "Tempered glass panels on the front, top, and sides of the case: Possibly the most beautiful case CORSAIR has ever made. With tempered glass enclosing the entire chassis, every component of your build is on display for all to see.",
    "Direct airflow path to keep your CPU and GPU running cooler: Three included SP120 RGB LED fans and included LED controller keeps your components running cool. Each SP120 RGB LED fan is equipped with vivid, customizable LED lights, enabling even further personalization for your build.",
    "Room for virtually anything: Room for up to six case fans, and fully compatible with 360mm, 280mm, 240mm, and 120mm radiators. Removable fan trays in the front and top of the chassis allows for additional space or mounting cooling outside of the chassis.",
    "Cable management made simple: Cable routing channels with included velcro cable straps for clean cable management."
  ],
  "weight_imperial": "22.2 lbs",
  "weight_metric": "10.9 kg",
  "warranty": "2 Year",
  "sources": {
    "mftr_site": "http://www.corsair.com/",
    "mftr_overview": "http://www.corsair.com/en-us/crystal-series-570x-rgb-atx-mid-tower-case",
    "mftr_specs": "http://www.corsair.com/en-us/crystal-series-570x-rgb-atx-mid-tower-case#lnkTechSpec",
    "mftr_manual": "http://www.corsair.com/en-us/crystal-series-570x-rgb-atx-mid-tower-case#lnkDownload",
    "mftr_downloads": "http://www.corsair.com/en-us/crystal-series-570x-rgb-atx-mid-tower-case#lnkDownload",
    "mftr_faq": "http://www.corsair.com/en-us/crystal-series-570x-rgb-atx-mid-tower-case#lnkFAQ",
    "mftr_support": "http://www.corsair.com/en-us/crystal-series-570x-rgb-atx-mid-tower-case#lnkFAQ"
  }
}
